Place,Name,Event,Equipment,Age,Sex,Division,BodyweightKg,WeightClassKg,Squat1Kg,Squat2Kg,Squat3Kg,Squat4Kg,Best3SquatKg,Bench1Kg,Bench2Kg,Bench3Kg,Bench4Kg,Best3BenchKg,Deadlift1Kg,Deadlift2Kg,Deadlift3Kg,Deadlift4Kg,Best3DeadliftKg,TotalKg,Country
1,Aaron LeOal,SBD,Wraps,19,M,T3,59,60,142.5,155,-172.5,,155,90,-100,100,-106,100,182.5,197.5,205,-218,205,460,Canada
3,Abdollah Ghelij,SBD,Wraps,41,M,M1,124.8,125,-180,200,220,,220,160,175,-185,,175,190,210,225,,225,620,Iran
3,Abdollah Ghelij,B,Raw,41,M,M1,122.9,125,,,,,,160,170,175,,175,,,,,,175,Iran
2,Ádám Adorján,SBD,Wraps,23,M,J,107.8,110,260,285,300,,300,140,150,155,,155,270,-300,-300,,270,725,Hungary
4,Ádám Agárdi,D,Raw,24,M,O,129.1,140,,,,,,,,,,,270,-285,285,,285,285,Hungary
1,Ádám Jakubek,B,Raw,17,M,T2,112.2,125,,,,,,130,140.5,146,148.5,146,,,,,,146,Slovakia
1,Ádám Jakubek,D,Raw,17,M,T2,112.2,125,,,,,,,,,,,220,232.5,240.5,,240.5,240.5,Slovakia
1,Ádám Kiss,D,Raw,21,M,J,110,110,,,,,,,,,,,360,-380,,,360,360,Hungary
3,Adam Kostura,B,Raw,23,M,J,123.9,125,,,,,,150,157.5,-162.5,,157.5,,,,,,157.5,Czechia
2,Adam Kostura,D,Raw,23,M,J,123.9,125,,,,,,,,,,,260,-280,-280,,260,260,Czechia
1,Ádám Oszkál,B,Raw,22,M,J,102.5,110,,,,,,205,-210,210,,210,,,,,,210,Hungary
2,Adam Sobek,B,Raw,23,M,J,97.1,100,,,,,,155,-165,170,,170,,,,,,170,Slovakia
2,Adam Švehla,D,Raw,37,M,O,133.1,140,,,,,,,,,,,320,330,-335,,330,330,Czechia
2,Adam Vokál,SBD,Wraps,25,M,O,82.1,82.5,250,,,,250,157.5,,,,157.5,250,,,,250,657.5,Czechia
1,Adam Vokál,S,Wraps,25,M,O,84.8,90,200,220,,,220,,,,,,,,,,,220,Czechia
1,Adrián Galo,B,Raw,16,M,T2,87,90,,,,,,95,105,-112.5,,105,,,,,,105,Slovakia
1,Adrián Galo,D,Raw,16,M,T2,87.1,90,,,,,,,,,,,170,180,190,,190,190,Slovakia
4,Adrián Hegyi,D,Raw,30,M,O,69.7,75,,,,,,,,,,,180,200,210,,210,210,Hungary
1,Adrián Untermayer,D,Raw,19,M,T3,82.9,90,,,,,,,,,,,200,215,-225,,215,215,Slovakia
1,Ágnes Kökény,D,Raw,49,F,M2,64.2,67.5,,,,,,,,,,,120,125,132.5,,132.5,132.5,Hungary
1,Ágnes Papp,B,Raw,40,F,M1,47.2,48,,,,,,40,45,-47.5,,45,,,,,,45,Hungary
1,Ágnes Papp,D,Raw,40,F,M1,47,48,,,,,,,,,,,95,100,105,110,105,105,Hungary
8,Aivis Bogadajevs,SBD,Wraps,27,M,O,96.5,100,-230,240,260,,260,140,160,-170,,160,280,300,310,,310,730,Latvia
1,Ákos Galyas-Lakatos,B,Raw,37,M,O,103.3,110,,,,,,115,120,-125,,120,,,,,,120,Hungary
7,Ákos Nagy,B,Raw,25,M,O,80.6,82.5,,,,,,170,175,-180,,175,,,,,,175,Hungary
3,Ákos Oláh,B,Raw,29,M,O,104.4,110,,,,,,210,220,225,,225,,,,,,225,Hungary
3,Aladár Uherík,B,Multi-ply,46,M,M2,108.7,110,,,,,,-220,-220,220,,220,,,,,,220,Slovakia
1,Alan Turner,SBD,Wraps,61,M,M5,119.7,125,210,225,,,225,135,-155,-155,,135,240,252.5,,,252.5,612.5,UK
5,Aleksandar Pelovski,SBD,Wraps,27,M,O,110,110,270,285,295,,295,195,-200,-200,,195,-290,290,-302.5,,290,780,Bulgaria
1,Aleksandr Romanichev,S,Multi-ply,54,M,M3,58,60,175,190,-205,,190,,,,,,,,,,,190,Israel
1,Aleksandr Romanichev,D,Multi-ply,54,M,M3,55.8,56,,,,,,,,,,,200,210,221,,221,221,Israel
1,Alexander Romanchiev,D,Raw,54,M,M3,58.3,60,,,,,,,,,,,180,-192.5,200,,200,200,Israel
1,Aleksandr Zaytsev,SBD,Wraps,38,M,O,121.5,125,330,-350,-350,,330,200,210,-215,,210,300,310,317.5,,317.5,857.5,Russia
2,Alexandra Alexa,SBD,Wraps,28,F,O,74,75,155,165,-167.5,,165,95,-105,-105,,95,165,172.5,177.5,,177.5,437.5,UK
2,Alexandra Soós,SBD,Wraps,20,F,J,71.3,75,-160,-170,170,,170,80,90,95,-105.5,95,185,200,-210,,200,465,Hungary
1,Alexandra Soós,D,Raw,20,F,J,72,75,,,,,,,,,,,190,205,215,,215,215,Hungary
DQ,Alexandre Mick,SBD,Wraps,21,M,J,64,67.5,130,135,-140,,135,-95,-95,-95,,,180,-185,,,180,,France
10,Ali Deeb,D,Raw,39,M,O,81.9,82.5,,,,,,,,,,,175,195,-210,,195,195,Ireland
1,Aljoša Prinčič,SBD,Wraps,24,M,O,81.1,82.5,215,,,,215,125,,,,125,265,,,,265,605,Slovenia
1,Almira Lizde,SBD,Wraps,36,F,O,80.4,82.5,170,-180,180,,180,90,100,102.5,,102.5,215,225,232.5,,232.5,515,Bosnia and Herzegovina
3,Amela Fekovic,D,Raw,27,F,O,61.6,67.5,,,,,,,,,,,120,-135,140,,140,140,Montenegro
2,Andis Kaspars,SBD,Wraps,42,M,M1,112.4,125,240,260,-275,,260,165,172.5,-180,,172.5,240,260,-275,,260,692.5,Latvia
1,András Csiszár,SBD,Multi-ply,45,M,M2,81.9,82.5,250,280,300,,300,150,180,-200,,180,260,285,,,285,765,Hungary
1,András Sebők,B,Raw,41,M,M1,120.2,125,,,,,,200,210,-220,,210,,,,,,210,Hungary
1,András Verbói,SBD,Wraps,18,M,T3,128.5,140,270,300,320,,320,150,160,-170,,160,270,300,310,,310,790,Hungary
1,André Madeira,D,Multi-ply,52,M,M3,80.3,82.5,,,,,,,,,,,180,190,-195,,190,190,Brazil
2,André Madeira,D,Raw,52,M,M3,80.1,82.5,,,,,,,,,,,180,190,-192.5,,190,190,Brazil
3,Andrei Bogatkov,B,Raw,43,M,M1,87.2,90,,,,,,155,-160,160,,160,,,,,,160,Russia
7,Andrej Ondruš,SBD,Wraps,27,M,O,98,100,275,-287.5,-287.5,,275,150,160,-165,,160,300,-310,-310,,300,735,Slovakia
DQ,Andrew Cairney,S,Multi-ply,39,M,O,129,140,-380,,,,,,,,,,,,,,,,Scotland
1,Andrew Cairney,B,Multi-ply,39,M,O,128.7,140,,,,,,270,-280,-280,,270,,,,,,270,Scotland
1,Andrew Cairney,D,Multi-ply,39,M,O,128.7,140,,,,,,,,,,,320,330,-340,,330,330,Scotland
3,Andrew Cairney,D,Raw,39,M,O,129.6,140,,,,,,,,,,,280,300,-332.5,,300,300,Scotland
1,Andrew Saunders,B,Multi-ply,51,M,M3,107.7,110,,,,,,230,250,270,,270,,,,,,270,UK
1,Angela McNamara,SBD,Multi-ply,45,F,M2,79.6,82.5,100,,,,100,50,,,,50,100,,,,100,250,Ireland
1,Angela McNamara,SBD,Wraps,45,F,M2,77.5,82.5,165,172.5,177.5,,177.5,100,102.5,105,,105,185,195,,,195,477.5,Ireland
1,Angela McNamara,S,Multi-ply,45,F,M2,79.9,82.5,150,180,200,,200,,,,,,,,,,,200,Ireland
1,Angela McNamara,B,Multi-ply,45,F,M2,80.7,82.5,,,,,,70,,,,70,,,,,,70,Ireland
1,Angela McNamara,D,Multi-ply,45,F,M2,80.7,82.5,,,,,,,,,,,70,,,,70,70,Ireland
3,Angeline Berva,SBD,Wraps,24,F,O,80.5,82.5,125,130,132.5,,132.5,75,-80,80,,80,155,160,-162.5,,160,372.5,France
3,Anikó Hajdú,D,Raw,32,F,O,69.4,75,,,,,,,,,,,140,150,-157.5,,150,150,Hungary
1,Anikó Olnár,B,Raw,18,F,T3,51,52,,,,,,40,42.5,-45,,42.5,,,,,,42.5,Hungary
2,Anita Danicser,D,Raw,39,F,O,87.8,90,,,,,,,,,,,145,152.5,160,,160,160,Hungary
2,Anna Eggleton,SBD,Wraps,33,F,O,51.2,52,110,117.5,-123,,117.5,55,60,-65,,60,125,135,142.5,,142.5,320,UK
1,Anna Gruber,D,Raw,70,F,M7,72.3,75,,,,,,,,,,,80,-90,100,110,100,100,Hungary
3,Anna Szilágyi,D,Raw,21,F,J,68.3,75,,,,,,,,,,,130,140,145,,145,145,Hungary
2,Anna Szlávik,B,Raw,45,F,M2,81.8,82.5,,,,,,70,75,-80,,75,,,,,,75,Hungary
1,Anna Szlávik,D,Raw,45,F,M2,82.5,82.5,,,,,,,,,,,110,120,125,,125,125,Hungary
1,Ante Gluić,SBD,Wraps,19,M,T3,122.7,125,300,310,315,,315,180,185,,,185,300,307.5,-312.5,,307.5,807.5,Croatia
2,Antic Milija,B,Multi-ply,48,M,M2,89.9,90,,,,,,120,,,,120,,,,,,120,Serbia
1,Antic Milija,D,Multi-ply,48,M,M2,89.9,90,,,,,,,,,,,150,,,,150,150,Serbia
2,Antoni Kaliňski,B,Raw,64,M,M5,67,67.5,,,,,,92.5,97.5,100,,100,,,,,,100,Poland
2,Antoni Kaliňski,D,Raw,64,M,M5,67.5,67.5,,,,,,,,,,,130,-140,,,130,130,Poland
2,Ariel Favio Pardo,S,Wraps,50,M,M3,95.2,100,210,225,-247.5,,225,,,,,,,,,,,225,Argentina
1,Ariela Amitay,S,Wraps,53,F,M3,56.5,60,-107.5,107.5,-120,,107.5,,,,,,,,,,,107.5,Israel
1,Ariela Amitay,SBD,Multi-ply,53,F,M3,56.5,60,130,-145,-145,,130,60,-102.5,-102.5,,60,130,-140,,,130,320,Israel
DQ,Ariela Amitay,SBD,Wraps,53,F,M3,57.5,60,,,,,,,,,,,,,,,,,Israel
1,Ariela Amitay,B,Multi-ply,53,F,M3,57.7,60,,,,,,92.5,-97.5,97.5,,97.5,,,,,,97.5,Israel
2,Arkadiusz Wojciech Piela,S,Wraps,24,M,O,98.2,100,280,295,305,,305,,,,,,,,,,,305,Poland
2,Áron Mező,B,Multi-ply,21,M,J,88.4,90,,,,,,140,-172.5,-177.5,,140,,,,,,140,Hungary
1,Áron Mező,D,Multi-ply,21,M,J,88.4,90,,,,,,,,,,,240,-250,-250,,240,240,Hungary
2,Árpád Ignéczi,SBD,Wraps,23,M,J,88.5,90,235,250,265,,265,165,175,185,,185,275,300,-330,,300,750,Hungary
1,Árpád Ignéczi,D,Raw,23,M,J,88.2,90,,,,,,,,,,,285,-310,-310,,285,285,Hungary
5,Attila Csaba Kis,SBD,Wraps,39,M,O,150.9,140+,-185,185,,,185,125,135,142.5,,142.5,225,230,237.5,,237.5,565,Hungary
2,Attila Endrődy,B,Raw,43,M,M1,104.7,110,,,,,,190,197.5,-205,,197.5,,,,,,197.5,Hungary
4,Attila Gembiczki,B,Raw,31,M,O,82.2,82.5,,,,,,-180,185,-192.5,,185,,,,,,185,Hungary
2,Attila Hegedűs,B,Raw,47,M,M2,107.2,110,,,,,,150,170,185,,185,,,,,,185,Hungary
2,Attila Hegedűs,D,Raw,47,M,M2,108.6,110,,,,,,,,,,,150,200,220,,220,220,Hungary
4,Attila Heizer,B,Raw,52,M,M3,108.7,110,,,,,,155,160,165,,165,,,,,,165,Hungary
2,Attila Jaloveczky,B,Raw,71,M,M7,90.1,100,,,,,,110,-125,-125,,110,,,,,,110,Hungary
4,Attila Karcsák,B,Raw,37,M,O,108.9,110,,,,,,207.5,217.5,225,,225,,,,,,225,Hungary
DQ,Attila Ocsár,B,Raw,38,M,O,91.1,100,,,,,,-140,,,,,,,,,,,Hungary
3,Attila Pupos,B,Raw,41,M,M1,125.3,140,,,,,,167.5,172.5,-180,,172.5,,,,,,172.5,Hungary
5,Attila Rozsnoki,B,Raw,31,M,O,97.8,100,,,,,,190,-200,-200,,190,,,,,,190,Hungary
3,Attila Stir,SBD,Wraps,31,M,O,96.5,100,300,310,-315,,310,180,-190,-190,,180,280,-290,,,280,770,Hungary
2,Attila Szücs,S,Multi-ply,42,M,M1,100,100,-230,230,,,230,,,,,,,,,,,230,Hungary
1,Attila Veinémer,SBD,Wraps,45,M,M2,72.6,75,155,160,-170,,160,100,110,-115,,110,170,-180,-180,,170,440,Hungary
1,Audrey Le Vaillant,SBD,Wraps,21,F,J,59.4,60,120,-130,-130,,120,55,-60,-60,,55,155,162.5,,,162.5,337.5,France
1,Audrey Le Vaillant,D,Raw,21,F,J,60,60,,,,,,,,,,,157.5,-165,-165,,157.5,157.5,France
1,Balázs Szarka,S,Wraps,18,M,T3,102.7,110,-110,-120,120,,120,,,,,,,,,,,120,Hungary
1,Barbara Belme,B,Raw,13,F,T1,79.5,82.5,,,,,,30,35,-40,,35,,,,,,35,Hungary
2,Barbara Tóth,SBD,Wraps,22,F,J,77.4,82.5,125,132.5,140,,140,60,65,-70,,65,125,132.5,140,,140,345,Hungary
1,Beáta Kárpáti,B,Raw,45,F,M2,60.6,67.5,,,,,,55,57.5,-60,,57.5,,,,,,57.5,Hungary
1,Beata Kowalska,B,Raw,45,F,M2,73.4,75,,,,,,65,70,75,,75,,,,,,75,Poland
1,Beata Kowalska,D,Raw,45,F,M2,74,75,,,,,,,,,,,140,152.5,157.5,,157.5,157.5,Poland
1,Beatrix Bíró,B,Raw,21,F,J,59.3,60,,,,,,92.5,-97.5,-97.5,,92.5,,,,,,92.5,Hungary
3,Bekki Cole,D,Raw,24,F,O,59.7,60,,,,,,,,,,,122.5,130,132.5,,132.5,132.5,UK
2,Béla Bolgárfalvi,B,Raw,75,M,M8,85.6,90,,,,,,90,100,-110,,100,,,,,,100,Hungary
1,Béla Nagy,B,Raw,58,M,M4,114.7,125,,,,,,155,160,,,160,,,,,,160,Hungary
DQ,Béla Serfőző,S,Wraps,54,M,M3,99.1,100,-170,-170,-170,,,,,,,,,,,,,,Hungary
3,Béla Serfőző,SBD,Wraps,54,M,M3,100.4,110,170,,,,170,120,,,,120,190,200,,,200,490,Hungary
3,Béla Serfőző,D,Raw,54,M,M3,100.5,110,,,,,,,,,,,180,210,,,210,210,Hungary
1,Ben Kelly,D,Multi-ply,38,M,O,82.3,82.5,,,,,,,,,,,255,267.5,272.5,-286,272.5,272.5,Ireland
2,Ben Kelly,D,Raw,38,M,O,82.5,82.5,,,,,,,,,,,240,260,272.5,,272.5,272.5,Finland
1,Ben-Boris Pomerantsev,D,Raw,13,M,T1,55.6,56,,,,,,,,,,,90,100,103,105.5,103,103,Israel
1,Bence Bihi,B,Raw,18,M,T3,111.5,125,,,,,,175,185,192.5,,192.5,,,,,,192.5,Hungary
2,Benedek Horváth,B,Raw,18,M,T3,69.7,75,,,,,,60,-70,-70,,60,,,,,,60,Hungary
DQ,Benedek Prokos,SBD,Wraps,17,M,T2,59.2,60,-90,-105,-105,,,55,-65,-65,,55,105,115,-130,,115,,Hungary
1,Benjamin Mező Áron,S,Wraps,21,M,J,86.6,90,170,-200,-210,,170,,,,,,,,,,,170,Hungary
1,Benjamin Mező Áron,SBD,Multi-ply,21,M,J,86.6,90,200,-220,-230,,200,140,-150,150,,150,230,-250,-250,,230,580,Hungary
1,Benjamin Mező Áron,S,Multi-ply,21,M,J,88.7,90,200,220,-230,-230,220,,,,,,,,,,,220,Hungary
4,Bennett Darren,B,Multi-ply,34,M,O,99.8,100,,,,,,200,-220,,,200,,,,,,200,Ireland
2,Bennett Darren,D,Multi-ply,34,M,O,99.8,100,,,,,,,,,,,280,-302.5,-302.5,,280,280,Ireland
1,Bennett Darren,D,Raw,34,M,O,99.2,100,,,,,,,,,,,270,-280,-280,,270,270,Ireland
1,Bernadett Fekete,D,Raw,24,F,O,65.6,67.5,,,,,,,,,,,150,160,170,,170,170,Hungary
1,Bernadett Halász,D,Raw,21,F,J,75.2,82.5,,,,,,,,,,,90,100,115,,115,115,Hungary
1,Bertrand Couvercelle,S,Wraps,41,M,M1,82,82.5,187.5,200,-210,,200,,,,,,,,,,,200,France
DQ,Beth Lovatt,SBD,Wraps,21,F,J,72.3,75,-175,-175,-175,,,,,,,,,,,,,,UK
1,Bill Healy,B,Raw,68,M,M6,81.8,82.5,,,,,,130,135,-142.5,,135,,,,,,135,Ireland
1,Bill Healy,SBD,Wraps,68,M,M6,81.8,82.5,210,,,,210,140,,,,140,235,,,,235,585,Ireland
1,Bill Healy,D,Raw,68,M,M6,81.9,82.5,,,,,,,,,,,225,232.5,,,232.5,232.5,Ireland
1,Billy Haavisto,S,Wraps,53,M,M3,108.3,110,245,,,,245,,,,,,,,,,,245,Finland
1,Billy Haavisto,S,Multi-ply,53,M,M3,108.9,110,-260,260,281,,281,,,,,,,,,,,281,Finland
1,Blanka Vass,SBD,Wraps,15,F,T1,58.9,60,100,105,110,,110,45,47.5,-50,,47.5,105,115,-120,120,115,272.5,Hungary
1,Boglárka Horváth,D,Raw,41,F,M1,116.3,110+,,,,,,,,,,,157.5,167.5,-179,-179,167.5,167.5,Hungary
1,Boriss Laisin,B,Raw,68,M,M6,70.2,75,,,,,,105,107.5,110,,110,,,,,,110,Israel
1,Boriss Laisin,D,Raw,68,M,M6,72.3,75,,,,,,,,,,,150,160,162.5,,162.5,162.5,Israel
2,Boshko Stamenkovski,B,Raw,47,M,M2,73.6,75,,,,,,130,135,-140,,135,,,,,,135,North Macedonia
5,Brendon Marsh,SBD,Wraps,31,M,O,89.1,90,240,-255,255,,255,135,-142.5,-142.5,,135,250,265,-270,,265,655,South Africa
1,Brian Hart,D,Multi-ply,49,M,M2,74.3,75,,,,,,,,,,,160,180,190,200,190,190,Ireland
1,Brian Hart,D,Raw,49,M,M2,74.6,75,,,,,,,,,,,160,185,205,,205,205,Ireland
DQ,Brian Johnston,S,Multi-ply,53,M,M3,106.2,110,-280,-280,-290,,,,,,,,,,,,,,Canada
DQ,Brian Johnston,B,Multi-ply,53,M,M3,106.4,110,,,,,,,,,,,,,,,,,Canada
2,Brian Marchant,SBD,Wraps,42,M,M1,89.5,90,205,-220,232.5,,232.5,125,132.5,-140,,132.5,235,247.5,-260,,247.5,612.5,Australia
1,Brian Marchant,D,Multi-ply,42,M,M1,89.8,90,,,,,,,,,,,245,-255,-255,,245,245,Australia
DQ,Bruno Walter,D,Raw,50,M,M3,96.5,100,,,,,,,,,,,-240,,,,,,Czechia
1,Burkhard Steffen,D,Multi-ply,68,M,M6,70.4,75,,,,,,,,,,,110,120,,,120,120,Germany
3,Bvinder Singh Barrah,SBD,Wraps,20,M,J,89.1,90,-260,260,-290,,260,170,-185,-185,,170,270,290,305,,305,735,UK
4,Carissa Deck,SBD,Wraps,25,F,O,59.7,60,137.5,147.5,-155,,147.5,-62.5,62.5,65,,65,145,160,167.5,,167.5,380,UK
2,Carlos Campos,SBD,Wraps,53,M,M3,112.5,125,180,190,-200,,190,130,140,150,,150,180,200,-225,,200,540,Argentina
3,Carlos Campos,B,Raw,53,M,M3,112,125,,,,,,135,145,155,,155,,,,,,155,Argentina
2,Carlos Campos,D,Raw,53,M,M3,112,125,,,,,,,,,,,180,195,205,,205,205,Argentina
1,Carlos Demattey Montagut,D,Raw,37,M,O,117.4,125,,,,,,,,,,,310,337.5,347.5,,347.5,347.5,Spain
1,Carlos Gerardo Campos,SBD,Multi-ply,52,M,M3,112.3,125,200,215,220,,220,170,180,-190,,180,200,215,225,,225,625,Argentina
2,Carlos Gerardo Campos,B,Multi-ply,52,M,M3,112.9,125,,,,,,170,180,,,180,,,,,,180,Argentina
1,Carlos Gerardo Campos,D,Multi-ply,52,M,M3,112.9,125,,,,,,,,,,,180,200,,,200,200,Argentina
3,Carolina Cuello,SBD,Wraps,29,F,O,73.7,75,160,170,-180,,170,75,85,-92.5,,85,150,160,165,,165,420,Argentina
1,Carolina Cuello,D,Raw,29,F,O,73.9,75,,,,,,,,,,,155,165,170,,170,170,Argentina
2,Cesar Emilio Mansilla,S,Wraps,34,M,O,110,110,-280,285,-302.5,,285,,,,,,,,,,,285,Argentina
1,Cesar Emilio Mansilla,SBD,Multi-ply,34,M,O,110,110,340,350,,,350,190,-200,-200,,190,300,315,,,315,855,Argentina
1,Čestmír Šíma,D,Raw,40,M,O,165.8,140+,,,,,,,,,,,390,-406,-406,,390,390,Czechia
2,Chloe Allan,SBD,Wraps,33,F,O,54.9,56,120,130,140,,140,-65,65,72.5,,72.5,150,165,-172.5,,165,377.5,UK
5,Chris Blair #1,B,Raw,53,M,M3,102.5,110,,,,,,155,160,,,160,,,,,,160,New Zealand
1,Chris Derrick,SBD,Wraps,30,M,O,89.1,90,-260,260,-275,,260,150,162.5,170,,170,300,315,-328.5,-328.5,315,745,Wales
1,Chris Morgan #1,D,Raw,45,M,M2,89.8,90,,,,,,,,,,,180,,,,180,180,UK
6,Christopher Watson #1,SBD,Wraps,32,M,O,87.6,90,215,-232.5,-235,,215,132.5,137.5,-145,,137.5,255,270,-275,,270,622.5,UK
1,Cicero Da Silva,B,Multi-ply,36,M,O,81.6,82.5,,,,,,-220,220,230,,230,,,,,,230,Brazil
6,Cicero Da Silva,B,Raw,36,M,O,82,82.5,,,,,,175,182.5,-187.5,,182.5,,,,,,182.5,Brazil
3,Cieron Browning,SBD,Wraps,28,M,O,86.5,90,-220,230,250,,250,165,170,-172.5,,170,260,-270,-270,,260,680,UK
1,Csaba Bajczer,SBD,Wraps,17,M,T2,81,82.5,180,195,205,,205,120,130,-135,,130,240,255,-265,,255,590,Hungary
1,Csaba Bajczer,D,Raw,17,M,T2,81,82.5,,,,,,,,,,,240,255,265,,265,265,Hungary
1,Csaba Krisztin,D,Raw,45,M,M2,95.9,100,,,,,,,,,,,200,202.5,-205,,202.5,202.5,Hungary
3,Csaba Méry,SBD,Wraps,17,M,T2,71.1,75,130,-140,-150,,130,95,97.5,-100,,97.5,180,190,-205,,190,417.5,Slovakia
2,Csaba Olnár,B,Raw,54,M,M3,124.2,125,,,,,,182.5,-192.5,-192.5,,182.5,,,,,,182.5,Hungary
1,Csaba Péter,B,Raw,18,M,T3,69.5,75,,,,,,110,120,122.5,,122.5,,,,,,122.5,Slovakia
2,Csaba Pupos,B,Raw,20,M,J,77.8,82.5,,,,,,137.5,140,142.5,,142.5,,,,,,142.5,Hungary
1,Csaba SiOn,D,Multi-ply,50,M,M3,84.6,90,,,,,,,,,,,-230,230,250,,250,250,Hungary
1,Csaba SiOn,D,Raw,50,M,M3,86.1,90,,,,,,,,,,,220,,,,220,220,Hungary
6,Csaba Szondi,B,Raw,31,M,O,109.8,110,,,,,,190,200,207.5,,207.5,,,,,,207.5,Hungary
2,Csilla Bakó,D,Raw,40,F,M1,57.6,60,,,,,,,,,,,105,-115,115,,115,115,Hungary
1,Csilla Örsi,SBD,Wraps,18,F,T3,56.9,60,75,80,85,,85,50,-52.5,,,50,95,102.5,107.5,,107.5,242.5,Hungary
2,Dagmar Skalová,SBD,Wraps,15,F,T1,58.6,60,95,-102.5,-102.5,,95,45,50,52.5,,52.5,95,102.5,-105,,102.5,250,Czechia
1,Daniel Davies,SBD,Wraps,27,M,O,80.9,82.5,220,,,,220,147.5,,,,147.5,290,,,,290,657.5,UK
1,Dana Bešková,B,Raw,63,F,M5,55.7,56,,,,,,-35,35,40,,40,,,,,,40,Czechia
1,Dana Bešková,D,Raw,63,F,M5,55.3,56,,,,,,,,,,,65,75,80,85,80,80,Czechia
2,Danel van Jaarsveld,SBD,Wraps,41,F,O,58.7,60,155,,,,155,85,92.5,97.5,,97.5,170,185,-192.5,,185,437.5,South Africa
1,Daniel Danko,D,Raw,17,M,T2,68,75,,,,,,,,,,,165,175,180,,180,180,Slovakia
1,Dániel Ökrös,B,Raw,23,M,J,66.6,67.5,,,,,,120,130,-140,,130,,,,,,130,Hungary
1,Dániel Ökrös,D,Raw,23,M,J,66.9,67.5,,,,,,,,,,,155,175,-187.5,,175,175,Hungary
1,Daniel Sánchez,S,Multi-ply,44,M,M1,98.7,100,330,360,-380,,360,,,,,,,,,,,360,Argentina
1,Daniel Sánchez,B,Multi-ply,44,M,M1,97.9,100,,,,,,150,260,-270,,260,,,,,,260,Argentina
1,Daniel Sánchez,SBD,Multi-ply,44,M,O,98,100,340,-370,-370,,340,230,265,-280.5,,265,260,280,295,,295,900,Argentina
11,Daniel Žarnowski,B,Raw,37,M,O,108.6,110,,,,,,160,170,172.5,,172.5,,,,,,172.5,Poland
2,Dániel Zelei,B,Multi-ply,27,M,O,98.4,100,,,,,,-240,240,250,,250,,,,,,250,Hungary
4,Danielle Bolduc,SBD,Wraps,26,F,O,79.9,82.5,-115,115,-130,,115,62.5,70,-80,,70,147.5,-165.5,165.5,,165.5,350.5,Canada
1,Darren Bennett,S,Multi-ply,34,M,O,99.8,100,280,-300,-331,,280,,,,,,,,,,,280,Ireland
DQ,Darren Quinn,S,Multi-ply,29,M,O,89.7,90,-341,-341,-341,,,,,,,,,,,,,,Ireland
4,Dávid Barabás,SBD,Wraps,30,M,O,98.5,100,270,280,-290,,280,190,-200,-200,,190,280,300,-302.5,,300,770,Hungary
1,Dávid Farkas #1,B,Raw,22,M,J,113.9,125,,,,,,200,-210,210,,210,,,,,,210,Hungary
2,Dávid Frey,B,Raw,22,M,J,163.8,140+,,,,,,165,187.5,192.5,,192.5,,,,,,192.5,Hungary
1,Dávid Frey,D,Raw,22,M,J,163.8,140+,,,,,,,,,,,252.5,262.5,275,,275,275,Hungary
6,David Green #4,D,Raw,37,M,O,73.3,75,,,,,,,,,,,150,165,172.5,,172.5,172.5,Ireland
1,Dávid Horák,B,Raw,15,M,T1,64.5,67.5,,,,,,65,72.5,-75,,72.5,,,,,,72.5,Czechia
1,Dávid Kecskés,D,Raw,25,M,O,131.9,140,,,,,,,,,,,350,370,-385,,370,370,Hungary
1,David Kovalčík,D,Raw,21,M,J,93.2,100,,,,,,,,,,,270,-285,-285,,270,270,Czechia
2,Dávid Mészáros,B,Raw,25,M,O,109,110,,,,,,212.5,222.5,227.5,,227.5,,,,,,227.5,Hungary
2,Dávid Petrovics,SBD,Wraps,17,M,T2,95.2,100,-185,190,-200,,190,120,130,-135,,130,210,220,-227.5,,220,540,Hungary
5,Dénes Bodnár,B,Raw,44,M,M1,90,90,,,,,,110,115,120,,120,,,,,,120,Hungary
1,Derek Drinnan,SBD,Wraps,76,M,M8,78.7,82.5,85,,,,85,55,,,,55,135,,,,135,275,UK
1,Dezső Korom,B,Raw,21,M,J,89.3,90,,,,,,185,195,-200,,195,,,,,,195,Hungary
1,Dezső Korom,B,Raw,47,M,M2,79.8,82.5,,,,,,155,162.5,170,,170,,,,,,170,Hungary
1,Dezső Orbán,B,Raw,21,M,J,57.8,60,,,,,,102.5,107.5,112.5,,112.5,,,,,,112.5,Hungary
1,Diána Urbán,D,Raw,41,F,M1,56,56,,,,,,,,,,,100,110,-120,,110,110,Hungary
1,Dmytro Hotlashov,S,Wraps,33,M,O,108.2,110,280,300,305,,305,,,,,,,,,,,305,Ukraine
3,Dmytro Hotlashov,D,Raw,33,M,O,106.8,110,,,,,,,,,,,-280,290,305,,305,305,Ukraine
1,Dominik Filip,SBD,Multi-ply,18,M,T3,61.8,67.5,150,160,-170,,160,-75,85,-92.5,,85,160,175,185,,185,430,Czechia
1,Dominik Minárik,D,Raw,19,M,T3,80.3,82.5,,,,,,,,,,,200,220,235,-245.5,235,235,Slovakia
2,Dominik Ponocný,SBD,Wraps,18,M,T3,105,110,270,-290,-290,,270,130,145,-155,,145,270,285,300,-302.5,300,715,Czechia
1,Dominik Wasilkiewicz,B,Raw,18,M,T3,82.5,82.5,,,,,,95,-100,-100,,95,,,,,,95,Poland
4,Dóra Bubernik,D,Raw,27,F,O,60,60,,,,,,,,,,,122.5,127.5,-135,,127.5,127.5,Hungary
1,Dóra Schopf,B,Raw,44,F,O,50.3,52,,,,,,75,80,82.5,,82.5,,,,,,82.5,Hungary
DQ,Dorian Jarosz,B,Raw,13,M,T1,52.6,56,,,,,,-45,-45,-45,,,,,,,,,Poland
2,Dorian Jarosz,D,Raw,13,M,T1,53,56,,,,,,,,,,,90,95,102.5,105,102.5,102.5,Poland
1,Dorina Bordás,S,Wraps,19,F,T3,71.7,75,80,90,-100,,90,,,,,,,,,,,90,Hungary
1,Dorina Bordás,D,Raw,19,F,T3,71.6,75,,,,,,,,,,,90,100,107.5,,107.5,107.5,Hungary
4,Dušan Argaláš,B,Raw,21,M,J,78.7,82.5,,,,,,110,120,-135,,120,,,,,,120,Slovakia
1,Edgars Peterlēvics,SBD,Multi-ply,31,M,O,86.3,90,280,300,310,,310,240,250,260,,260,235,245,250,,250,820,Latvia
DQ,Edit Illyés,S,Wraps,46,F,M2,74.8,75,-130,-130,-130,,,,,,,,,,,,,,Hungary
2,Edit Illyés,D,Raw,46,F,M2,74.6,75,,,,,,,,,,,145,-155,-157.5,,145,145,Hungary
4,Edoardo Barbaglia,SBD,Wraps,23,M,J,88.9,90,280,-287.5,-287.5,,280,180,187.5,-190.5,,187.5,-260,-260,260,,260,727.5,Italy
5,Eduard Valentík,D,Raw,37,M,O,115.2,125,,,,,,,,,,,280,-300,-300,,280,280,Czechia
1,Edvards Juhimenko,SBD,Wraps,13,M,T1,59.2,60,135,140,145,150,145,70,75,78,,78,135,145,150,,150,373,Latvia
1,Edward Dunne,B,Multi-ply,40,M,M1,81.7,82.5,,,,,,100,,,,100,,,,,,100,Ireland
DQ,Edward Dunne,B,Raw,40,M,M1,82,82.5,,,,,,-170,-170,-172.5,,,,,,,,,Ireland
3,Edward Rożnowski,D,Multi-ply,67,M,O,89.2,90,,,,,,,,,,,175,205,-240,,205,205,Poland
1,Ela Kardaś,D,Raw,18,F,T3,54.5,56,,,,,,,,,,,110,117.5,-120,,117.5,117.5,Poland
1,Elena Šimová,SBD,Wraps,40,F,M1,72.1,75,180,190,200,,200,90,95,100,,100,180,190,-200.5,,190,490,Slovakia
1,Elizabet Tomilov,B,Raw,15,F,T1,55.2,56,,,,,,47.5,50,52.5,54,52.5,,,,,,52.5,Israel
2,Elizabet Tomilov,D,Raw,15,F,T1,54.8,56,,,,,,,,,,,-80,80,90,,90,90,Israel
5,Ellen Freeborn,SBD,Wraps,27,F,O,59.8,60,140,-147.5,147.5,,147.5,65,70,72.5,,72.5,140,147.5,-155,,147.5,367.5,UK
1,Ellen Tobin Hogan,S,Multi-ply,24,F,O,60,60,70,90,101,-107.5,101,,,,,,,,,,,101,Ireland
1,Ellen Tobin Hogan,D,Multi-ply,24,F,O,60.9,67.5,,,,,,,,,,,70,100,120,,120,120,Ireland
1,Ellenmary Hogan,SBD,Multi-ply,24,F,O,59.4,60,60,75,-85,,75,40,50,-55,,50,-100,100,115,,115,240,Ireland
3,Elviss Kranats,SBD,Wraps,23,M,J,104.4,110,220,240,260,,260,150,160,165,,165,250,260,275,,275,700,Latvia
1,Ema Mišovčíková,SBD,Wraps,15,F,T1,55,56,105,110,-120,,110,55,60,62.5,,62.5,120,125,130,,130,302.5,Slovakia
1,Ema Mišovčíková,D,Raw,15,F,T1,54.9,56,,,,,,,,,,,120,125,-132.5,,125,125,Slovakia
1,Emilio Mansilla,S,Multi-ply,34,M,O,110,110,330,-345,345,,345,,,,,,,,,,,345,Argentina
1,Emilio Mansilla,D,Multi-ply,34,M,O,110,110,,,,,,,,,,,285,-300,,,285,285,Argentina
2,Emma Jane Smith,SBD,Wraps,32,F,O,80.1,82.5,162.5,172.5,180,,180,72.5,77.5,80,,80,160,167.5,172.5,,172.5,432.5,UK
3,Enikő Tóth,SBD,Wraps,20,F,J,68.2,75,125,135,142.5,,142.5,55,-57.5,57.5,,57.5,135,150,155,,155,355,Slovakia
1,Enikő Tóth,D,Raw,20,F,J,67.3,67.5,,,,,,,,,,,140,-152.5,-161.5,,140,140,Slovakia
DQ,Eric Bar,SBD,Multi-ply,49,M,M2,113.8,125,-225,-225,-225,,,-215,,,,,,,,,,,France
1,Eric Bar,B,Multi-ply,49,M,M2,115.7,125,,,,,,215,-222.5,-230,,215,,,,,,215,France
2,Eric Bar,D,Multi-ply,49,M,M2,115.7,125,,,,,,,,,,,-250,250,-255,,250,250,France
2,Erik Karvai,SBD,Wraps,31,M,O,88.7,90,250,-260,260,,260,170,180,-182.5,,180,250,270,275,,275,715,Slovakia
1,Erik Méhes,SBD,Wraps,17,M,T2,162.4,140+,190,200,-210,,200,90,-95,,,90,190,-200,200,,200,490,Slovakia
8,Erik Rusnak,B,Raw,34,M,O,101.5,110,,,,,,185,-192.5,-192.5,,185,,,,,,185,Slovakia
2,Erik Susztay,B,Raw,46,M,M2,138.4,140,,,,,,215,225,-230,,225,,,,,,225,Slovakia
1,Erik Valent,B,Multi-ply,33,M,O,73.9,75,,,,,,150,165,167.5,,167.5,,,,,,167.5,Slovakia
DQ,Ernő Eck,S,Multi-ply,46,M,M2,113.7,125,-242.5,-255,-255,,,,,,,,,,,,,,Hungary
2,Ernő Eck,D,Multi-ply,24,M,O,87.8,90,,,,,,,,,,,220,230,-240,,230,230,Hungary
1,Ernőné Újvári,B,Raw,68,F,M6,67.1,67.5,,,,,,45,50,52.5,,52.5,,,,,,52.5,Hungary
1,Ernő Újvári,B,Raw,70,M,M7,81.6,82.5,,,,,,100,105,-110,,105,,,,,,105,Hungary
1,Ernő Varga,B,Raw,53,M,M3,71,75,,,,,,125,130,-132.5,,130,,,,,,130,Hungary
2,Éva Koczkás,SBD,Wraps,47,F,M2,81.2,82.5,170,180,190,,190,102.5,107.5,110,,110,150,155,162.5,,162.5,462.5,Hungary
1,Éva Koczkás,B,Raw,47,F,M2,80.9,82.5,,,,,,105,110,-112.5,,110,,,,,,110,Hungary
1,Éva Kucsa,D,Raw,40,F,M1,59.6,60,,,,,,,,,,,125,-130,-130,,125,125,Hungary
4,Fabrice Benchabane,SBD,Wraps,47,M,M2,95.5,100,212.5,217.5,,,217.5,122.5,130,135,,135,240,252.5,257.5,,257.5,610,France
1,Fabrice Benchabane,D,Multi-ply,47,M,M2,95.7,100,,,,,,,,,,,250,257.5,262.5,,262.5,262.5,France
2,Fathia Chettibi,B,Raw,28,F,O,57.6,60,,,,,,85,90,-92.5,,90,,,,,,90,France
1,Favio Pardo,D,Multi-ply,50,M,M3,94.9,100,,,,,,,,,,,200,215,230,,230,230,Argentina
1,Favio Pardo,D,Raw,50,M,M3,95.4,100,,,,,,,,,,,230,240,245,-250,245,245,Argentina
1,Federic Hoareau,SBD,Wraps,41,M,M1,82.4,82.5,190,,,,190,130,,,,130,210,,,,210,530,France
1,Federico Sanchez,S,Multi-ply,22,M,J,82.5,82.5,-180,190,210,220,210,,,,,,,,,,,210,Argentina
1,Federico Sanchez,D,Multi-ply,22,M,J,82,82.5,,,,,,,,,,,200,225,241,247.5,241,241,Argentina
6,Felicita Susa,SBD,Wraps,24,F,O,59.9,60,130,137.5,142.5,,142.5,60,65,-67.5,,65,115,125,-127.5,,125,332.5,Hungary
1,Ferenc Balázs,B,Multi-ply,48,M,M2,109.3,110,,,,,,290,302.5,-310,-320,302.5,,,,,,302.5,Hungary
2,Ferenc Balázs,B,Raw,15,M,T1,74.3,75,,,,,,65,72.5,-77.5,,72.5,,,,,,72.5,Hungary
3,Ferenc Bálint,B,Raw,27,M,O,126.9,140,,,,,,192.5,200,205,,205,,,,,,205,Hungary
3,Ferenc Márkus,SBD,Wraps,24,M,O,117.5,125,250,257.5,267.5,,267.5,160,170,175,,175,235,245,-257.5,,245,687.5,Hungary
1,Ferenc Mata,B,Raw,17,M,T2,93.4,100,,,,,,135,-142.5,-145,,135,,,,,,135,Hungary
3,Ferenc Papp,B,Raw,54,M,M3,85.5,90,,,,,,125,130,-137.5,,130,,,,,,130,Hungary
2,Ferenc Papp,D,Raw,54,M,M3,86.2,90,,,,,,,,,,,170,180,185,,185,185,Hungary
1,Ferenc Smuk,SBD,Wraps,66,M,M6,88.2,90,240,250,260,,260,100,-105,105,,105,240,260,-270,,260,625,Hungary
2,Ferenc Som,B,Raw,43,M,M1,129.2,140,,,,,,190,200,-215,,200,,,,,,200,Hungary
1,Ferenc Szenti,D,Raw,40,M,M1,124.1,125,,,,,,,,,,,265,275,287.5,,287.5,287.5,Hungary
1,Filip Kaňák,B,Multi-ply,25,M,O,65.5,67.5,,,,,,85,92.5,-105,,92.5,,,,,,92.5,Czechia
1,Filip Kaňák,D,Multi-ply,25,M,O,65.5,67.5,,,,,,,,,,,170,-190,190,,190,190,Czechia
1,Florián Tichý,SBD,Wraps,31,M,O,66.5,67.5,165,-172.5,175,,175,140,142.5,-145,,142.5,205,210,215,,215,532.5,Slovakia
5,Forest Bihun,SBD,Wraps,25,M,O,82.2,82.5,182.5,,,,182.5,90,,,,90,200,,,,200,472.5,Canada
1,Francesca Harrison,SBD,Wraps,17,F,T2,66.6,67.5,105,115,-120,,115,60,67.5,-70.5,-70.5,67.5,130,-140,140,,140,322.5,UK
3,Francesco Porto Lo,D,Raw,38,M,O,77.6,82.5,,,,,,,,,,,255,262.5,-270,,262.5,262.5,Italy
1,František Makranský,SBD,Wraps,56,M,M4,121.3,125,250,-260,265,,265,-140,140,150,155,150,240,250,260,,260,675,Slovakia
3,František Sajko,B,Raw,47,M,M2,88.3,90,,,,,,152.5,162.5,165,,165,,,,,,165,Slovakia
1,Frantisek Szabluk,B,Multi-ply,62,M,M5,98.6,100,,,,,,210,-220,220,,220,,,,,,220,Poland
1,Gábor Bencze,SBD,Wraps,40,M,O,125.4,140,315,330,-335,,330,210,-215,217.5,,217.5,320,332.5,-337.5,,332.5,880,Hungary
2,Gábor Bezzeg,SBD,Wraps,21,M,J,81,82.5,-210,210,-220,,210,110,-120,-120,,110,250,265,-270,,265,585,Hungary
1,Gábor Bezzeg,D,Raw,21,M,J,81.3,82.5,,,,,,,,,,,250,265,-270,,265,265,Hungary
1,Gábor Boncz,B,Raw,27,M,O,57.9,60,,,,,,85,90,95,,95,,,,,,95,Hungary
1,Gábor Csikós,S,Wraps,30,M,O,80.9,82.5,140,170,-180,,170,,,,,,,,,,,170,Hungary
6,Gábor Csikós,D,Raw,30,M,O,80.4,82.5,,,,,,,,,,,210,245,-250,,245,245,Hungary
2,Gábor Galambos,B,Raw,34,M,O,102,110,,,,,,80,85,90,,90,,,,,,90,Hungary
1,Gábor Goda,B,Raw,63,M,M5,73.7,75,,,,,,-115,115,126.5,,126.5,,,,,,126.5,Hungary
1,Gábor Hajós,SBD,Wraps,31,M,O,78.6,82.5,200,,,,200,140,,,,140,210,,,,210,550,Hungary
1,Gábor Jádi,SBD,Wraps,30,M,O,81.1,82.5,195,,,,195,107.5,,,,107.5,200,,,,200,502.5,Hungary
1,Gábor Király,S,Wraps,16,M,T2,106.2,110,205,210,215,220,215,,,,,,,,,,,215,Hungary
1,Gábor Király,D,Multi-ply,16,M,T2,106,110,,,,,,,,,,,230,,,,230,230,Hungary
1,Gábor Király,D,Raw,16,M,T2,104,110,,,,,,,,,,,240,255,-265.5,,255,255,Hungary
2,Gábor Köles,D,Raw,55,M,M4,134.7,140,,,,,,,,,,,195,-202.5,-202.5,,195,195,Hungary
DQ,Gábor Köles,D,Raw,27,M,O,90.7,100,,,,,,,,,,,-300,,,,,,Hungary
5,Gábor Lakatos,D,Raw,29,M,O,74.4,75,,,,,,,,,,,190,210,-217.5,,210,210,Hungary
8,Gábor Olnár,B,Raw,25,M,O,81.6,82.5,,,,,,170,175,-180,,175,,,,,,175,Hungary
3,Gábor Teleki,B,Raw,65,M,M6,80.6,82.5,,,,,,80,-90,100,,100,,,,,,100,Hungary
2,Gábor Újvári,D,Raw,18,M,T3,77.8,82.5,,,,,,,,,,,190,200,210,,210,210,Hungary
1,Gary Boulton,SBD,Multi-ply,54,M,M3,132.9,140,310,330,-350,,330,225,-240,240,,240,260,300,312.5,,312.5,882.5,UK
1,Gary Boulton,D,Multi-ply,54,M,M3,132.4,140,,,,,,,,,,,305,-317.5,,,305,305,UK
1,Gary Boulton,D,Raw,54,M,M3,133.3,140,,,,,,,,,,,265,-306.5,,,265,265,UK
DQ,Ger Twomey,B,Raw,38,M,O,99.9,100,,,,,,-185,-185,-185,,,,,,,,,Ireland
1,Gérard Ivars,SBD,Wraps,52,M,M3,89.2,90,210,-220,220,,220,110,117.5,-120,,117.5,210,220,-230,,220,557.5,France
2,Gerd Müller,B,Raw,66,M,M6,81.9,82.5,,,,,,120,125,-130,,125,,,,,,125,Germany
2,Gerd Müller,D,Raw,66,M,M6,81.1,82.5,,,,,,,,,,,120,135,140,,140,140,Germany
1,Gergely Marton,SBD,Wraps,22,M,J,81.7,82.5,205,220,-230,,220,135,-145,150,,150,240,260,270,,270,640,Hungary
1,Gergő Benes,SBD,Wraps,20,M,J,140.3,140+,350,370,380,,380,210,217.5,,,217.5,325,-348,-348,,325,922.5,Hungary
1,Gergő Nagy,D,Raw,15,M,T1,95.7,100,,,,,,,,,,,190,200,206,,206,206,Hungary
2,Géza Bognár,B,Raw,63,M,M5,88.5,90,,,,,,110,115,-120,,115,,,,,,115,Hungary
1,Gőz Erika Rékasiné,B,Raw,42,F,M1,54.7,56,,,,,,57.5,60,62.5,,62.5,,,,,,62.5,Hungary
1,Grazielle Silva,D,Multi-ply,36,F,O,59.5,60,,,,,,,,,,,175,185,195,200,195,195,Brazil
1,Grazielle Silva,D,Raw,36,F,O,58.9,60,,,,,,,,,,,180,190,200,-205,200,200,Brazil
1,Grigori Rubin,B,Multi-ply,82,M,M9,76.1,82.5,,,,,,100,105,112.5,,112.5,,,,,,112.5,Israel
1,Grigori Rubin,D,Multi-ply,82,M,M9,76.1,82.5,,,,,,,,,,,155,160,165,,165,165,Israel
2,Grigori Rubin,B,Raw,82,M,M9,76.3,82.5,,,,,,87.5,92.5,95,,95,,,,,,95,Israel
1,Grigori Rubin,SBD,Wraps,82,M,M9,76.3,82.5,130,,,,130,92.5,,,,92.5,157.5,,,,157.5,380,Israel
1,Grigori Rubin,D,Raw,82,M,M9,76.4,82.5,,,,,,,,,,,150,155,160,,160,160,Israel
2,Grzegorz Drewniany,S,Wraps,41,M,M1,97.6,100,225,235,-245,,235,,,,,,,,,,,235,Poland
1,Guylhem Feraud,SBD,Wraps,73,M,M7,72.3,75,110,120,-130,,120,95,-102.5,-102.5,,95,165,172.5,,,172.5,387.5,France
1,Gyárfás Geréd,B,Raw,65,M,M6,118,125,,,,,,120,,,,120,,,,,,120,Hungary
1,Gyöngyi Herczeg,B,Multi-ply,25,F,O,64.4,67.5,,,,,,60,65,-70,,65,,,,,,65,Hungary
4,Gyöngyi Herczeg,D,Raw,25,F,O,63.1,67.5,,,,,,,,,,,85,95,-102.5,,95,95,Hungary
1,György Fonyódi,B,Raw,75,M,M8,66.7,67.5,,,,,,65,70,-72.5,,70,,,,,,70,Hungary
1,György Kleisz,B,Raw,44,M,M1,107.2,110,,,,,,145,155,-160,,155,,,,,,155,Hungary
3,György Ladányi,SBD,Wraps,38,M,O,128.6,140,290,305,,,305,190,200,207.5,,207.5,275,-285,,,275,787.5,Hungary
2,Gyula Leyer,B,Raw,58,M,M4,81.5,82.5,,,,,,110,120,-125,,120,,,,,,120,Hungary
2,Hamidreza Kazemi,B,Raw,31,M,O,124.4,125,,,,,,220,235,240,,240,,,,,,240,Iran
2,Hana Slúková,D,Raw,24,F,O,66.8,67.5,,,,,,,,,,,135,145,-155,,145,145,Czechia
4,Haris Raković,SBD,Wraps,22,M,J,105,110,200,220,235,,235,150,160,-170,,160,240,265,275,,275,670,Bosnia and Herzegovina
3,Haris Raković,D,Raw,22,M,J,105.5,110,,,,,,,,,,,265,275,,,275,275,Bosnia and Herzegovina
2,Hartmut Ewert,B,Raw,59,M,M4,83.4,90,,,,,,140,-145,-145,,140,,,,,,140,Germany
4,Helena Erbanová,SBD,Wraps,35,F,O,63.6,67.5,110,-120,122.5,,122.5,60,65,70,,70,130,140,150,,150,342.5,Czechia
3,Hilton Mazzaro Otaviano,SBD,Wraps,28,M,O,79.5,82.5,220,,,,220,165,,,,165,255,,,,255,640,Brazil
9,Hilton Mazzaro Otaviano,B,Raw,28,M,O,80.5,82.5,,,,,,160,165,-170,,165,,,,,,165,Brazil
5,Hilton Mazzaro Otaviano,D,Raw,28,M,O,80.7,82.5,,,,,,,,,,,250,-260,-260,,250,250,Brazil
1,Huba Hablicsek,D,Multi-ply,20,M,J,58.2,60,,,,,,,,,,,155,165,-175,-180,165,165,Hungary
1,Ianis Kalaichev,B,Raw,33,M,O,60.5,67.5,,,,,,150,160,162.5,,162.5,,,,,,162.5,Russia
5,Ibrian Mirko Carripilon,SBD,Wraps,23,M,J,99.7,100,-225,225,-235,,225,110,120,-125,,120,200,210,-220,,210,555,Argentina
1,Ildikó Szabó,B,Raw,47,F,M2,97.3,110,,,,,,55,65,-66,,65,,,,,,65,Hungary
3,Ildikó Sztrunga,B,Raw,39,F,O,57.7,60,,,,,,42.5,-45,45,,45,,,,,,45,Hungary
6,Ildikó Sztrunga,D,Raw,39,F,O,58.5,60,,,,,,,,,,,95,107.5,115,,115,115,Hungary
2,Ilkka Naskali,SBD,Multi-ply,35,M,O,89.9,90,260,-290,-300,,260,210,-230,-230,,210,230,255,270,,270,740,Finland
1,Ilkka Naskali,S,Multi-ply,35,M,O,89.8,90,260,280,,,280,,,,,,,,,,,280,Finland
2,Ilkka Naskali,B,Multi-ply,35,M,O,89.6,90,,,,,,210,220,-240,,220,,,,,,220,Finland
1,Ilkka Naskali,D,Multi-ply,35,M,O,89.6,90,,,,,,,,,,,240,-265,-265,,240,240,Finland
2,Ilona Egri,B,Raw,45,F,M2,56.5,60,,,,,,60,62.5,-65,,62.5,,,,,,62.5,Hungary
1,Imade Bahria,SBD,Wraps,43,M,M1,90,90,260,-280,280,,280,125,130,-135,,130,270,290,300,-312,300,710,France
1,Imre Élő,B,Raw,75,M,M8,90.6,100,,,,,,85,92.5,100,,100,,,,,,100,Hungary
2,Imre Nagy,B,Raw,55,M,M4,103.7,110,,,,,,-120,130,-140,,130,,,,,,130,Hungary
1,Imre Nagy,D,Raw,55,M,M4,104.1,110,,,,,,,,,,,140,150,,,150,150,Hungary
1,Irina Pomerantsev,SBD,Wraps,48,F,M2,44.7,48,80,-85,-85,,80,55,60,-62.5,,60,90,100,-102.5,,100,240,Israel
1,István Bognár,S,Wraps,46,M,M2,107.8,110,230,245,,,245,,,,,,,,,,,245,Hungary
2,István Bognár,SBD,Wraps,46,M,M2,107.8,110,240,-250,252.5,,252.5,155,165,-167.5,,165,240,250,255,,255,672.5,Hungary
1,István Debus,SBD,Wraps,51,M,M3,131.5,140,200,210,225,,225,175,182.5,-190,,182.5,210,225,240,,240,647.5,Hungary
3,István Dorogi,B,Raw,43,M,M1,61.4,67.5,,,,,,110,120,125,,125,,,,,,125,Hungary
1,István Eszenyi,B,Raw,61,M,M5,107.8,110,,,,,,155,162.5,167.5,,167.5,,,,,,167.5,Hungary
1,István Gyuricska Jr,B,Raw,51,M,M3,82.7,90,,,,,,160,170,,,170,,,,,,170,Hungary
1,István Gyuricska Jr,B,Raw,17,M,T2,78.2,82.5,,,,,,135,140,145,,145,,,,,,145,Hungary
3,István Kürti,SBD,Wraps,46,M,M2,90.7,100,210,225,230,,230,160,170,-172.5,,170,220,230,245,,245,645,Hungary
5,István Lugasi,B,Raw,46,M,M2,100.3,110,,,,,,140,-160,-160,,140,,,,,,140,Hungary
3,István Mester,B,Raw,26,M,O,80.7,82.5,,,,,,-180,-185,185,,185,,,,,,185,Hungary
1,István Répás,B,Raw,41,M,M1,66.4,67.5,,,,,,130,135,140,,140,,,,,,140,Hungary
1,István Réz,B,Raw,75,M,M8,71.5,75,,,,,,100,-105,,,100,,,,,,100,Hungary
4,István Roszik,B,Raw,42,M,M1,98.5,100,,,,,,-175,175,-185,,175,,,,,,175,Hungary
2,István Sinka,B,Raw,50,M,M3,81.2,82.5,,,,,,120,125,-127.5,,125,,,,,,125,Hungary
1,István Szeifert,B,Raw,41,M,M1,88.1,90,,,,,,160,167.5,175,,175,,,,,,175,Hungary
1,István Tóth,B,Raw,62,M,M5,58.6,60,,,,,,107.5,110,-122.5,,110,,,,,,110,Hungary
1,István Varga,D,Raw,50,M,M3,75.9,82.5,,,,,,,,,,,190,210,216,,216,216,Hungary
3,István Verebi,B,Raw,67,M,M6,74,75,,,,,,105,110,-115,,110,,,,,,110,Hungary
2,Ivan Stanković,B,Raw,44,M,M1,74.6,75,,,,,,130,-137.5,-137.5,,130,,,,,,130,Serbia
1,Ivan Stanković,D,Raw,43,M,M1,74.8,75,,,,,,,,,,,230,-241,-241,-241,230,230,Serbia
1,Jakub Stachurski,SBD,Wraps,17,M,T2,72.4,75,140,150,160,,160,90,100,-102.5,,100,175,195,205,-221,205,465,Poland
1,James Cox #1,B,Multi-ply,38,M,O,107.3,110,,,,,,220,-227.5,-227.5,,220,,,,,,220,UK
1,Jan Habart,B,Raw,41,M,M1,98.7,100,,,,,,200,-210,-215,-215,200,,,,,,200,Czechia
1,Ján Hodermarszki,B,Raw,40,M,M1,107,110,,,,,,190,200,205,,205,,,,,,205,Slovakia
4,Ján Hubay,B,Raw,47,M,M2,109.7,110,,,,,,145,150,-160,,150,,,,,,150,Slovakia
1,Jan Kasper,D,Multi-ply,19,M,T3,82.4,82.5,,,,,,,,,,,210,230,240,,240,240,Czechia
1,Jan Lindqvist,SBD,Wraps,48,M,M2,81.9,82.5,260,,,,260,165,,,,165,305,,,,305,730,Finland
1,Ján Orosz,B,Raw,54,M,M3,133.6,140,,,,,,180,,,,180,,,,,,180,Slovakia
2,Ján Šiska,B,Multi-ply,38,M,O,121.6,125,,,,,,220,240,-270,,240,,,,,,240,Slovakia
1,Ján Velgos,B,Multi-ply,17,M,T2,128.1,140,,,,,,320,345,-355,,345,,,,,,345,Slovakia
1,Jani Toivo Kristian Ihalainen,SBD,Multi-ply,43,M,M1,118.6,125,200,220,240,,240,200,220,-235,,220,200,245,,,245,705,Finland
1,Jani Toivo Kristian Ihalainen,S,Multi-ply,43,M,M1,123.5,125,200,205,210,215,210,,,,,,,,,,,210,Finland
2,Jani Toivo Kristian Ihalainen,B,Multi-ply,43,M,M1,125.2,140,,,,,,205,-240,,,205,,,,,,205,Finland
1,Jani Toivo Kristian Ihalainen,D,Multi-ply,43,M,M1,125.2,140,,,,,,,,,,,205,240,272.5,,272.5,272.5,Finland
1,Jani Virtanen,B,Raw,23,M,J,99.1,100,,,,,,190,-197.5,-197.5,,190,,,,,,190,Finland
2,János Bialik,B,Raw,17,M,T2,115.5,125,,,,,,135,141,-146.5,-146.5,141,,,,,,141,Hungary
1,János Csatári,B,Multi-ply,62,M,M5,103.4,110,,,,,,160,170,,,170,,,,,,170,Hungary
4,János Erdei,B,Multi-ply,25,M,O,77,82.5,,,,,,130,-140,140,,140,,,,,,140,Hungary
1,János Fazekas,SBD,Wraps,31,M,O,98.3,100,325,-337.5,-337.5,,325,200,205,209.5,,209.5,310,-320,-320,,310,844.5,Hungary
1,János Hagymási,SBD,Wraps,77,M,M8,97.5,100,-130,-130,130,-140,130,40,50,-65,,50,140,-155,,,140,320,Hungary
2,János Tóth,B,Raw,44,M,M1,57.5,60,,,,,,80,87.5,-95,,87.5,,,,,,87.5,Hungary
1,Janoš Ungai,B,Multi-ply,42,M,M1,67,67.5,,,,,,110,120,135,,135,,,,,,135,Hungary
2,Janoš Ungai,B,Raw,42,M,M1,66.7,67.5,,,,,,122.5,132.5,-137.5,,132.5,,,,,,132.5,Hungary
1,Janoš Ungai,D,Raw,42,M,M1,66.8,67.5,,,,,,,,,,,100,,,,100,100,Hungary
2,Janusz Witkowski,S,Wraps,58,M,M4,108.6,110,185,-202.5,-202.5,,185,,,,,,,,,,,185,Poland
12,Jared Nemeth,B,Raw,27,M,O,76.8,82.5,,,,,,140,150,-155,,150,,,,,,150,Canada
3,Jaromír Mizera,B,Raw,53,M,M3,103.9,110,,,,,,170,180,-185,,180,,,,,,180,Czechia
1,Jaroslav Šolc,S,Wraps,61,M,M5,97,100,180,190,-200,,190,,,,,,,,,,,190,Slovakia
1,Jaroslav Šolc,SBD,Wraps,61,M,M5,97.3,100,170,190,202.5,,202.5,135,145,150,,150,180,190,-202.5,,190,542.5,Slovakia
1,Jaroslav Šolc,B,Raw,61,M,M5,98,100,,,,,,135,140,145,,145,,,,,,145,Slovakia
2,Jaroslav Šolc,D,Raw,61,M,M5,99.3,100,,,,,,,,,,,180,190,-200,,190,190,Slovakia
1,Jaroslav Tomanec,D,Multi-ply,75,M,M8,81.7,82.5,,,,,,,,,,,145,150,155,,155,155,Czechia
1,Jaroslav Žuffa,SBD,Wraps,21,M,J,88.9,90,285,305,315,,315,160,170,177.5,,177.5,275,290,300,,300,792.5,Slovakia
1,Jason Bar,SBD,Wraps,16,M,T2,55.7,56,87.5,95,-100,,95,47.5,-52.5,-52.5,,47.5,90,97.5,-102.5,,97.5,240,France
1,Jason Bar,S,Multi-ply,16,M,T2,55.3,56,90,97.5,-102.5,,97.5,,,,,,,,,,,97.5,France
1,Jason Bar,D,Multi-ply,16,M,T2,55.9,56,,,,,,,,,,,90,97.5,-102.5,,97.5,97.5,France
1,Jason Gillespie,SBD,Wraps,45,M,M2,137.4,140,245,262.5,275,,275,170,182.5,-187.5,,182.5,260,282.5,,,282.5,740,Slovakia
3,Jeffrey O'Neill,B,Multi-ply,28,M,O,88.5,90,,,,,,180,-192.5,200,,200,,,,,,200,Ireland
1,Jennifer Milliron-O'Neil,SBD,Multi-ply,43,F,M1,71,75,-206,206,215,,215,-125,130,140,,140,185,206,,,206,561,Ireland
1,Jennifer Milliron-O'Neil,D,Multi-ply,43,F,M1,73.5,75,,,,,,,,,,,200,-205,-210,,200,200,Ireland
1,Jeri Jones,SBD,Wraps,22,F,J,100.1,110,-187.5,187.5,-195,,187.5,82.5,-90,90,,90,157.5,165.5,170,-175,170,447.5,Wales
1,Jess Wilcock,SBD,Wraps,21,F,J,51.2,52,97.5,105,-110,,105,55,-60,-60,,55,120,130,135,,135,295,UK
4,Jesus Martinez Naveira,SBD,Wraps,35,M,O,87.7,90,215,230,240,,240,130,140,-150,,140,260,280,-300,,280,660,Spain
1,Jesus Martinez Naveira,D,Raw,35,M,O,89.8,90,,,,,,,,,,,265,285,-300,,285,285,Spain
2,Jiří Svozil,SBD,Multi-ply,64,M,M5,103.5,110,165,175,-180,,175,60,70,-75,,70,180,205,,,205,450,Czechia
2,Joanna Gawron,D,Raw,25,F,O,58.4,60,,,,,,,,,,,125,135,145,,145,145,Poland
1,Joanna Kaczmarczyk,D,Raw,14,F,T1,37.6,44,,,,,,,,,,,60,65,70,,70,70,Poland
1,Jo Foster,D,Raw,47,F,M2,57.5,60,,,,,,,,,,,146,150,155,157.5,155,155,UK
1,Joannis Sulime,B,Multi-ply,67,M,M6,73,75,,,,,,115,120,125,,125,,,,,,125,France
2,Joannis Sulime,B,Raw,67,M,M6,73.5,75,,,,,,105,110,-115,,110,,,,,,110,France
3,Jóhann Gíslason,SBD,Wraps,58,M,M4,111.1,125,-220,220,-230,,220,-130,130,-137.5,,130,230,240,250,,250,600,Iceland
1,Johanna Bies,B,Raw,46,F,M2,59.1,60,,,,,,105,115,-120,,115,,,,,,115,Finland
1,Johanna Smith,SBD,Wraps,23,F,J,76.8,82.5,135,142.5,-150,,142.5,75,-77.5,,,75,155,162.5,170,,170,387.5,New Zealand
DQ,Johanna Smith,D,Raw,23,F,J,77.3,82.5,,,,,,,,,,,-172.5,-172.5,-172.5,,,,Hungary
1,Jonathan Bar,S,Multi-ply,22,M,J,52.4,56,150,-155.5,-155.5,,150,,,,,,,,,,,150,France
1,Jonathan Bar,D,Multi-ply,22,M,J,62.3,67.5,,,,,,,,,,,160,167.5,-172.5,,167.5,167.5,France
1,Jonathan Eric Bar,SBD,Multi-ply,22,M,J,61.8,67.5,150,-157.5,-160,,150,87.5,92.5,-97.5,,92.5,-172.5,172.5,-180,,172.5,415,France
1,Josef Cichý,SBD,Wraps,65,M,M6,59.8,60,140,150,155,,155,55,60.5,65,,65,150,160,165,-170,165,385,Czechia
1,Josef Grmolec,SBD,Wraps,23,M,J,138.9,140,355,380,390,,390,207.5,217.5,225,,225,345,385,-400,,385,1000,Czechia
2,Jozef Daráž,B,Raw,32,M,O,152.2,140+,,,,,,190,195,-200,,195,,,,,,195,Slovakia
1,Jozef Gabrhel,SBD,Wraps,62,M,M5,72.3,75,130,140,145,,145,95,100,-102.5,,100,160,170,180,,180,425,Slovakia
1,Jozef Gabriel,S,Wraps,62,M,M5,72.1,75,130,140,150,,150,,,,,,,,,,,150,Slovakia
2,Jozef Grega,B,Raw,24,M,O,82,82.5,,,,,,180,190,-195,,190,,,,,,190,Slovakia
1,Jozef Mazac,S,Wraps,42,M,M1,135.5,140,280,-300,-300,,280,,,,,,,,,,,280,Czechia
1,Jozef Völgyák,B,Multi-ply,66,M,M6,85.5,90,,,,,,130,140,,,140,,,,,,140,Slovakia
1,Jozef Völgyák,B,Raw,66,M,M6,85.9,90,,,,,,120,130,-132.5,,130,,,,,,130,Slovakia
1,József Baranyai,B,Raw,78,M,M8,77.6,82.5,,,,,,90,97.5,-103,,97.5,,,,,,97.5,Hungary
10,József Bartal,SBD,Wraps,27,M,O,96.6,100,210,230,-245,,230,120,130,140,,140,230,240,250,,250,620,Hungary
3,József Lakatos,SBD,Multi-ply,46,M,O,106.2,110,-260,-260,260,,260,180,-187.5,187.5,,187.5,230,240,-250,,240,687.5,Hungary
1,József Paragi,B,Raw,48,M,M2,88.8,90,,,,,,170,187.5,-192.5,,187.5,,,,,,187.5,Hungary
3,József SoOgyi,B,Multi-ply,27,M,O,121,125,,,,,,-180,-180,180,,180,,,,,,180,Hungary
2,Judit Andrási,SBD,Wraps,42,F,M1,58.2,60,-95,95,105,,105,52.5,55,-60,,55,120,125,132.5,,132.5,292.5,Hungary
1,Juhani Anttila Pekka,SBD,Wraps,53,M,M3,82.1,82.5,182.5,,,,182.5,75,,,,75,212.5,,,,212.5,470,Finland
1,Julie Davis #1,SBD,Wraps,42,F,M1,58.3,60,135,-145,-145,,135,75,80,-85,-85.5,80,160,167.5,173,,173,388,UK
1,Július Vrbiniak,B,Raw,62,M,M5,110.3,125,,,,,,-140,140,-155,,140,,,,,,140,Slovenia
4,Juliusz Zbierski,B,Raw,44,M,M1,89.2,90,,,,,,155,-160,-160,,155,,,,,,155,Poland
DQ,Juni Josep Ragues,D,Raw,32,M,O,72.7,75,,,,,,,,,,,-245,-245,-245,,,,Spain
1,Juraj Bokroš,S,Wraps,19,M,T3,91.1,100,-210,220,-225,,220,,,,,,,,,,,220,Slovakia
2,Juraj Bokroš,B,Raw,19,M,T3,88.5,90,,,,,,120,-130,-130,,120,,,,,,120,Slovakia
DQ,Juraj Bokroš,D,Raw,19,M,T3,89.2,90,,,,,,,,,,,-170,,,,,,Slovakia
2,Juraj Grígeľ,D,Raw,25,M,O,109.6,110,,,,,,,,,,,315,330,-345,,330,330,Slovakia
4,Juraj Kačmárik,SBD,Wraps,33,M,O,106.5,110,280,295,-305,,295,160,170,-175,,170,310,325,-335,,325,790,Slovakia
DQ,Kai-Uwe Göllnitz,B,Multi-ply,44,M,M1,124.7,125,,,,,,-290,-290,-290,,,,,,,,,Germany
DQ,Kamen Omchilov,D,Raw,32,M,O,97.3,100,,,,,,,,,,,-285,-295,,,,,Bulgaria
2,Kamil Tůma,SBD,Wraps,34,M,O,73.7,75,222.5,-230,-230,,222.5,150,-155,-155,,150,240,-255,-255,,240,612.5,Czechia
5,Kara Shaw,D,Raw,30,F,O,73.5,75,,,,,,,,,,,125,135,140,,140,140,Scotland
1,Karol Brečka,SBD,Multi-ply,57,M,M4,80.3,82.5,195,-215,220,,220,120,130,-140,,130,195,215.5,225,,225,575,Czechia
1,Karol Brečka,S,Multi-ply,57,M,M4,78.2,82.5,200,,-225,,200,,,,,,,,,,,200,Czechia
1,Karol Brečka,D,Multi-ply,57,M,M4,77.9,82.5,,,,,,,,,,,200,-220,220,,220,220,Czechia
2,Károly Buljáki,B,Raw,25,M,O,128.5,140,,,,,,190,202.5,207.5,,207.5,,,,,,207.5,Hungary
2,Károly Szuder,B,Raw,31,M,O,99.6,100,,,,,,190,195,200,,200,,,,,,200,Slovakia
DQ,Kata Piri,D,Raw,16,F,T2,57.5,60,,,,,,,,,,,-90,-90,-95,,,,Hungary
1,Katalin Ferkel Molnárné,S,Wraps,47,F,M2,55.8,56,-95,95,-110,,95,,,,,,,,,,,95,Hungary
2,Katalin Mezei,B,Raw,39,F,O,51,52,,,,,,65,70,-75,,70,,,,,,70,Hungary
1,Katalin Rohrmann,S,Wraps,65,F,M6,82.1,82.5,90,95,-100,,95,,,,,,,,,,,95,Hungary
1,Katalin Rohrmann,D,Raw,65,F,M6,82.5,82.5,,,,,,,,,,,120,130,135,,135,135,Hungary
1,Kelly Brown #1,SBD,Wraps,28,F,O,59.7,60,175,187.5,195,,195,85,90,92.5,,92.5,180,190,-195.5,-195.5,190,477.5,UK
2,Klaudia Bodnár,B,Raw,14,F,T1,51.3,52,,,,,,25,27.5,-30,,27.5,,,,,,27.5,Hungary
2,Klaudia Galová,D,Raw,19,F,T3,61.9,67.5,,,,,,,,,,,90,100,110,,110,110,Slovakia
DQ,Kristína Fečová,B,Multi-ply,20,F,J,58.7,60,,,,,,-80,,-80,,,,,,,,,Slovakia
2,Kristof De Coninck,D,Raw,33,M,O,121.6,125,,,,,,,,,,,335,345,-355,,345,345,Belgium
3,Kristóf Kincses,D,Raw,25,M,O,96.2,100,,,,,,,,,,,240,252.5,257.5,,257.5,257.5,Hungary
1,Krisztián Deme,B,Raw,15,M,T1,69.2,75,,,,,,105,115,120,,120,,,,,,120,Slovakia
1,Krisztián Karosán,B,Raw,24,M,O,124.4,125,,,,,,-225,235,242.5,,242.5,,,,,,242.5,Hungary
1,Krisztián Korsós,SBD,Wraps,22,M,J,72.7,75,195,-205,205,,205,115,122.5,-127.5,,122.5,220,232.5,237.5,,237.5,565,Hungary
1,Krisztián Kovács,S,Wraps,36,M,O,114.7,125,-150,150,,,150,,,,,,,,,,,150,Hungary
1,Krisztián Kovács,S,Multi-ply,36,M,O,114.2,125,180,,,,180,,,,,,,,,,,180,Hungary
DQ,Krisztián Kovács,B,Multi-ply,36,M,O,113.7,125,,,,,,,,,,,,,,,,,Hungary
3,Krisztián Pupos,B,Raw,18,M,T3,85,90,,,,,,110,117.5,-122.5,,117.5,,,,,,117.5,Hungary
1,Krisztina Réka Farkas,B,Raw,19,F,T3,65,67.5,,,,,,65,70,75,77.5,75,,,,,,75,Hungary
1,Krisztina Réka Farkas,D,Raw,19,F,T3,65.6,67.5,,,,,,,,,,,120,130,148,150,148,148,Hungary
2,Krystyna Puzio,B,Raw,53,F,M3,93.2,110,,,,,,60,65,-72.5,,65,,,,,,65,Poland
2,Krystyna Puzio,D,Raw,53,F,M3,92.3,110,,,,,,,,,,,145,155,-162.5,,155,155,Poland
13,Krzysztof Wieczorek,B,Raw,39,M,O,76.3,82.5,,,,,,120,125,-130,,125,,,,,,125,Poland
2,Krzysztof Wolszczak,B,Multi-ply,33,M,O,74.3,75,,,,,,150,162.5,167.5,,167.5,,,,,,167.5,Poland
2,Krzysztof Zakrzewski,B,Raw,40,M,M1,99.3,100,,,,,,197.5,207.5,-213,-213,207.5,,,,,,207.5,Poland
1,Ladislau Kiss,D,Multi-ply,70,M,M7,98.1,100,,,,,,,,,,,240,262.5,275,280,275,275,Hungary
2,Ladislav Kašpar,SBD,Wraps,23,M,J,145.1,140+,-300,-320,320,,320,210,220,-225,,220,320,340,-350,,340,880,Czechia
3,Lajos Bán,SBD,Wraps,41,M,M1,106.9,110,210,220,-230,,220,150,-155,,,150,240,-260,-260,,240,610,Hungary
1,Lajos Cseh,B,Raw,44,M,M1,82.2,82.5,,,,,,167.5,172.5,177.5,-185.5,177.5,,,,,,177.5,Hungary
1,Lajos Oláh,S,Wraps,43,M,M1,97,100,240,250,260,,260,,,,,,,,,,,260,Hungary
1,Lajos Vig,B,Multi-ply,38,M,O,121.7,125,,,,,,270,-285,285,,285,,,,,,285,Hungary
1,László Bugyi,B,Raw,54,M,M3,98.1,100,,,,,,165,170,-172.5,,170,,,,,,170,Hungary
10,László Cérna,B,Raw,25,M,O,81.2,82.5,,,,,,160,-170,,,160,,,,,,160,Hungary
2,László Eck,D,Multi-ply,40,M,M1,86.4,90,,,,,,,,,,,230,240,-247.5,,240,240,Hungary
2,László Haraszti,B,Multi-ply,47,M,M2,107.4,110,,,,,,210,-230,230,,230,,,,,,230,Hungary
1,László Haraszti Ifj,B,Multi-ply,16,M,T2,95.5,100,,,,,,130,140,152.5,,152.5,,,,,,152.5,Hungary
1,László Jantek,B,Raw,52,M,M3,81.2,82.5,,,,,,150,160,-165,,160,,,,,,160,Hungary
1,László Jobbágy,B,Multi-ply,71,M,M7,83.9,90,,,,,,140,150,,,150,,,,,,150,Hungary
1,László Jobbágy,B,Raw,71,M,M7,83.6,90,,,,,,120.5,,,,120.5,,,,,,120.5,Hungary
1,László Kasza,B,Raw,77,M,M8,89.1,90,,,,,,110,120,130,,130,,,,,,130,Hungary
1,László Kiss,D,Raw,49,M,M2,107.4,110,,,,,,,,,,,270,280,,,280,280,Hungary
2,László Kiss,B,Raw,50,M,M3,87.9,90,,,,,,132.5,-137.5,-140,,132.5,,,,,,132.5,Hungary
1,László Kozma,B,Raw,61,M,M5,88.6,90,,,,,,122.5,127.5,130,,130,,,,,,130,Hungary
9,László Nagy,B,Raw,38,M,O,101.9,110,,,,,,175,185,-190,,185,,,,,,185,Hungary
3,László Orosz,B,Raw,29,M,O,112.8,125,,,,,,230,-235,-237.5,,230,,,,,,230,Hungary
DQ,László Végső,SBD,Wraps,41,M,M1,134,140,-280,280,-310,,280,-220,-220,-220,,,,,,,,,Hungary
1,László Végső,B,Raw,41,M,M1,135,140,,,,,,-205,210,-217.5,,210,,,,,,210,Hungary
1,Lauri Marttila,B,Raw,27,M,O,99.3,100,,,,,,215,-222.5,,,215,,,,,,215,Finland
6,Lázár Dominik,SBD,Wraps,29,M,O,100.7,110,-160,160,-180,,160,130,140,-145,,140,180,200,-220,,200,500,Hungary
1,Lee Marshall,D,Multi-ply,59,M,M4,117,125,,,,,,,,,,,280,290,300,-330.5,300,300,UK
1,Lee Marshall,D,Raw,59,M,M4,117,125,,,,,,,,,,,280,300,305,,305,305,UK
DQ,Lee Powell,SBD,Multi-ply,34,M,O,88.8,90,-300,-300,-300,,,,,,,,,,,,,,Canada
1,Lesley Jayne Thomas,SBD,Wraps,52,F,M3,59.4,60,-127.5,-127.5,127.5,-136,127.5,67.5,72.5,75,,75,150,-160.5,160.5,,160.5,363,UK
1,Lesley Jayne Thomas,B,Multi-ply,52,F,M3,63.5,67.5,,,,,,80.5,85,90,-95,90,,,,,,90,UK
1,Leticia Bertotto,B,Raw,46,F,O,88.6,90,,,,,,128,133,-135,,133,,,,,,133,Argentina
1,Leticia Bertotto,D,Raw,46,F,O,89.1,90,,,,,,,,,,,230,240,250,,250,250,Argentina
1,Liam Turnbull,SBD,Wraps,18,M,T3,77.7,82.5,182.5,-195,200,,200,112.5,117.5,-122.5,,117.5,185,195,200,,200,517.5,UK
1,Liane Sabourin,SBD,Wraps,43,F,M1,150.5,110+,-120,120,-130,,120,90,-100,-108,,90,160,170,-172.5,,170,380,Canada
2,Liane Sabourin,D,Raw,43,F,M1,151.7,110+,,,,,,,,,,,157.5,165,-178.5,-178.5,165,165,Canada
1,Libor Hurdálek,SBD,Multi-ply,64,M,M5,100.6,110,220,235,242.5,,242.5,155,161,170,-180,170,190,210,220,,220,632.5,Czechia
1,Libor Hurdálek,S,Multi-ply,64,M,M5,99.8,100,220,235,-242.5,,235,,,,,,,,,,,235,Czechia
1,Lil Bianchi Kimble,SBD,Wraps,34,F,O,51.3,52,135,-145,-145,,135,-65,65,-67.5,,65,160,170,180,,180,380,South Africa
1,Lothar Schulze,S,Multi-ply,68,M,M6,81.7,82.5,95,120,130,,130,,,,,,,,,,,130,Germany
1,Lothar Schulze,D,Multi-ply,68,M,M6,81.8,82.5,,,,,,,,,,,140,150,160,,160,160,Germany
2,Ľubomír Trstenský,D,Multi-ply,43,M,M1,113.3,125,,,,,,,,,,,225,235,,,235,235,Slovakia
7,Ľubomír Vidiščák,B,Raw,31,M,O,98.6,100,,,,,,160,170,-180,,170,,,,,,170,Slovakia
4,Ľudovít Fürješ,B,Raw,45,M,M2,125.9,140,,,,,,140,-145,-147.5,,140,,,,,,140,Slovakia
11,Lukáš Chmela,B,Raw,36,M,O,80.9,82.5,,,,,,145,155,-160,,155,,,,,,155,Czechia
3,Lukáš Dorazil,D,Raw,35,M,O,74.2,75,,,,,,,,,,,200,215,-235,,215,215,Czechia
6,Lukáš Tesař,SBD,Wraps,26,M,O,97.6,100,-265,-265,265,,265,190,200,-205,,200,260,275,280,,280,745,Czechia
3,Łukasz Lipka,SBD,Wraps,26,M,O,109,110,305,315,325,,325,175,-180,-180,,175,310,-315,-315,,310,810,Poland
1,Maczka Mieczjslaw,B,Multi-ply,64,M,M5,81.3,82.5,,,,,,100,-110,,,100,,,,,,100,Germany
1,Maczka Mieczyslaw,S,Multi-ply,64,M,M5,82.1,82.5,100,127.5,,,127.5,,,,,,,,,,,127.5,Germany
1,Maczka Mieczyslaw,D,Multi-ply,64,M,M5,81.3,82.5,,,,,,,,,,,110,125,,,125,125,Germany
1,Maczka Mieczyslaw,B,Raw,64,M,M5,81.9,82.5,,,,,,-100,102.5,112.5,,112.5,,,,,,112.5,Germany
1,Maczka Mieczyslaw,D,Raw,64,M,M5,82.5,82.5,,,,,,,,,,,110,125,,,125,125,Germany
1,Mafi Javad,B,Raw,39,M,O,141.9,140+,,,,,,230,-242.5,,,230,,,,,,230,Iran
1,Magdalena Szpila,D,Raw,16,F,T2,45.4,48,,,,,,,,,,,80,85,90,,90,90,Poland
3,Małgorzata Hałas-Koralewska,SBD,Wraps,31,F,O,60,60,180,190,-200,,190,115,120,123,,123,85,-92.5,92.5,,92.5,405.5,Poland
1,Małgorzata Hałas-Koralewska,B,Raw,31,F,O,60,60,,,,,,115,120,123,125,123,,,,,,123,Poland
1,Marc Assirelli,B,Raw,70,M,M7,97.1,100,,,,,,120,130,135,-143.5,135,,,,,,135,France
3,Marc Barnes,SBD,Wraps,23,M,J,116.8,125,315,330,-337.5,,330,160,-167.5,,,160,280,-290,-292.5,,280,770,UK
2,Marcell Nagy,D,Raw,18,M,T3,85.4,90,,,,,,,,,,,185,192.5,207.5,,207.5,207.5,Hungary
5,Marcell Szigetvári,SBD,Wraps,16,M,T2,72.7,75,100,112.5,120,,120,-82.5,85,-90,,85,135,145,-150,,145,350,Hungary
1,Marcos Martinez,SBD,Multi-ply,43,M,M1,100,100,-365,-385,385,-401,385,-192.5,192.5,-202.5,,192.5,285,301,315,,315,892.5,Argentina
1,Marcos Martinez,D,Multi-ply,43,M,M1,99,100,,,,,,,,,,,280,305,-326,,305,305,Argentina
1,Marcos Martinez,D,Raw,43,M,M1,98.7,100,,,,,,,,,,,260,280,-301,,280,280,Argentina
DQ,Marcos Martinez,S,Multi-ply,43,M,O,99,100,-361,-361,-361,,,,,,,,,,,,,,Argentina
1,Mareks Leitis,B,Raw,41,M,M1,141,140+,,,,,,220,232.5,236,,236,,,,,,236,Latvia
2,Mariann Krisztinné Tóth,B,Raw,39,F,O,88.6,90,,,,,,65,-67.5,67.5,,67.5,,,,,,67.5,Hungary
4,Mariann Krisztinné Tóth,D,Raw,39,F,O,88.1,90,,,,,,,,,,,-107.5,107.5,122.5,,122.5,122.5,Hungary
4,Marianne Hartio,SBD,Wraps,25,F,O,68.5,75,135,-150,-150,,135,-90,90,-92.5,,90,140,150,162.5,,162.5,387.5,Finland
2,Marianne Hartio,B,Raw,25,F,O,70.7,75,,,,,,-90,90,-92.5,,90,,,,,,90,Finland
4,Marianne Hartio,D,Raw,25,F,O,72.5,75,,,,,,,,,,,150,-162.5,-162.5,,150,150,Finland
1,Mariela Ortellado,SBD,Wraps,33,F,O,96.3,110,240,250.5,260,,260,125,135,140,,140,230,240,250.5,260,250.5,650.5,Argentina
2,Márk Pardi,B,Multi-ply,21,M,J,72.1,75,,,,,,110,-117.5,-122.5,,110,,,,,,110,Hungary
1,Mark Woodruff,D,Raw,40,M,M1,146.5,140+,,,,,,,,,,,250,285,-312.5,,285,285,UK
4,Mark Woodruff,SBD,Wraps,39,M,O,146,140+,277.5,292.5,305,,305,167.5,175,-180,,175,287.5,-292.5,-302.5,,287.5,767.5,UK
1,Marko Rudy,D,Multi-ply,22,M,J,73.5,75,,,,,,,,,,,220,232.5,235,-240,235,235,Slovakia
1,Márkó Van Baggem,SBD,Wraps,15,M,T1,82.5,82.5,-120,-120,120,,120,70,80,85,,85,130,140,-150,,140,345,Hungary
5,Marko Vujović,B,Raw,36,M,O,108.8,110,,,,,,210,215,222.5,,222.5,,,,,,222.5,Serbia
1,Márta Matuska,SBD,Wraps,28,F,O,73.2,75,180,195,205,,205,100,105,-110,,105,190,200,-210,,200,510,Hungary
1,Martin Dezső,SBD,Wraps,21,M,J,94.7,100,-270,270,-287.5,,270,160,165,-167.5,,165,270,290,-300,,290,725,Hungary
3,Martin Horák,SBD,Wraps,41,M,M1,98.4,100,220,-232.5,232.5,,232.5,160,167.5,172.5,,172.5,220,235,242.5,,242.5,647.5,Czechia
4,Martin Kesztyűs,B,Multi-ply,24,M,O,87,90,,,,,,-165,-165,165,,165,,,,,,165,Hungary
1,Martin Kolodžej,S,Wraps,44,M,M1,107,110,205,-217.5,217.5,,217.5,,,,,,,,,,,217.5,Slovakia
4,Martin Kolodžej,SBD,Wraps,44,M,M1,106.2,110,-200,200,-222.5,,200,115,-122.5,-125,,115,210,225,-237.5,,225,540,Slovakia
3,Martin Marinkovich,SBD,Wraps,26,M,O,73.6,75,180,195,205,,205,140,150,155,,155,210,220,230,,230,590,Hungary
4,Martin Marinkovich,B,Raw,26,M,O,73.3,75,,,,,,150,-155,157.5,,157.5,,,,,,157.5,Hungary
3,Martin Márk Kovács,SBD,Wraps,21,M,J,96.1,100,-230,230,-240,,230,125,140,-150,,140,-260,260,-270,,260,630,Hungary
1,Martin McNamara,B,Multi-ply,23,M,J,87.5,90,,,,,,160,172.5,-175,,172.5,,,,,,172.5,Ireland
2,Martin McNamara,D,Multi-ply,23,M,J,87.5,90,,,,,,,,,,,205,220,-242.5,,220,220,Ireland
8,Martín San Felice,D,Raw,33,M,O,80.5,82.5,,,,,,,,,,,180,200,220,,220,220,Argentina
1,Martin Šuverík,SBD,Wraps,18,M,T3,90.5,100,260,-280,-280,,260,150,-160,-170,,150,250,260,-265,,260,670,Slovakia
1,Martin Viktor,B,Raw,20,M,J,127.6,140,,,,,,195,202.5,-210,,202.5,,,,,,202.5,Hungary
2,Martin White,SBD,Wraps,49,M,M2,98.7,100,-240,240,-262.5,,240,140,150,155,,155,250,260,270,,270,665,UK
1,Martina Kis,D,Raw,25,F,O,78.1,82.5,,,,,,,,,,,160,170,-180,,170,170,Hungary
1,Máté Juhász,SBD,Wraps,18,M,T3,87.7,90,-210,210,222.5,,222.5,170,180,185,,185,240,255,265,,265,672.5,Hungary
1,Máté Kiss #1,SBD,Wraps,19,M,T3,62.5,67.5,160,-170,175,,175,90,100,,,100,170,180,190,,190,465,Hungary
3,Máté Suszter,B,Raw,31,M,O,74.1,75,,,,,,150,155,160,,160,,,,,,160,Hungary
1,Máté Szilágyi,B,Multi-ply,27,M,O,96.9,100,,,,,,300,310,-320.5,-320.5,310,,,,,,310,Hungary
2,Matej Ševčík,B,Raw,16,M,T2,77.9,82.5,,,,,,125,-135,135,,135,,,,,,135,Slovakia
1,Matěj Syrovátka,B,Raw,19,M,T3,93.4,100,,,,,,180,190,200,-205,200,,,,,,200,Czechia
1,Matěj Syrovátka,D,Raw,19,M,T3,93.7,100,,,,,,,,,,,280,300,305,,305,305,Czechia
2,Matías Carro,D,Raw,27,M,O,88,90,,,,,,,,,,,235,245,-255,,245,245,Argentina
2,Matt Pullen,SBD,Wraps,31,M,O,109.6,110,277.5,-287.5,-287.5,,277.5,170,182.5,-185,,182.5,330,-350,352.5,-371,352.5,812.5,UK
1,Matt Pullen,D,Raw,31,M,O,109.9,110,,,,,,,,,,,320,345,-361,,345,345,UK
1,Mátyás Farkas,B,Raw,49,M,M2,130.1,140,,,,,,220,-230,230,,230,,,,,,230,Hungary
3,Mátyás Nagy,SBD,Wraps,25,M,O,81.4,82.5,155,,,,155,110,,,,110,230,,,,230,495,Slovakia
5,Meliton Baranyai,SBD,Wraps,24,M,O,75,75,150,160,-175,,160,80,-85,85,,85,160,-167.5,167.5,,167.5,412.5,Hungary
2,Menyhért Horák,B,Raw,44,M,M1,88.2,90,,,,,,160,165,-170,,165,,,,,,165,Hungary
1,Mercédesz Oldoványi,B,Raw,18,F,T3,54.5,56,,,,,,52.5,55,57.5,,57.5,,,,,,57.5,Hungary
DQ,Michael Martin,SBD,Multi-ply,55,M,M4,110.6,125,-300,-300,-300,,,,,,,,,,,,,,Canada
2,Michael Martin,SBD,Wraps,55,M,M4,111.3,125,205,228,-250,,228,125,143,-153,,143,230,260,-285,,260,631,Canada
4,Michael Ozun,B,Raw,20,M,J,108.8,110,,,,,,125,-150,-150,,125,,,,,,125,Ireland
6,Michael Ozun,D,Raw,20,M,J,109,110,,,,,,,,,,,200,-230,230,,230,230,Ireland
3,Michael Snooke,SBD,Wraps,21,M,J,175.5,140+,350,-370,-382.5,,350,195,-200,,,195,310,,,,310,855,South Africa
1,Michal Červinka,SBD,Multi-ply,58,M,M4,88.9,90,-225,225,232.5,,232.5,120,130,-135,,130,210,217.5,-222.5,,217.5,580,Slovakia
1,Michal Červinka,S,Multi-ply,58,M,M4,89.6,90,220,230,-237.5,,230,,,,,,,,,,,230,Slovakia
4,Michal Hrivňák,B,Raw,24,M,O,97.3,100,,,,,,190,-192.5,-192.5,,190,,,,,,190,Slovakia
1,Michal Jančár,B,Multi-ply,17,M,T2,74.6,75,,,,,,150,-160,160,,160,,,,,,160,Slovakia
2,Michal Kadlec,SBD,Wraps,29,M,O,122.2,125,290,310,-325,,310,210,222.5,230,,230,290,310,-320,,310,850,Czechia
1,Michal Šafařík,D,Raw,51,M,M3,107.4,110,,,,,,,,,,,230,250,262.5,,262.5,262.5,Czechia
1,Michal Šafařík,D,Raw,13,M,T1,61.9,67.5,,,,,,,,,,,-100,115,130,-140.5,130,130,Serbia
9,Michel Jähnel,B,Raw,26,M,O,124.3,125,,,,,,162.5,170,-175,,170,,,,,,170,Germany
6,Michel Jähnel,D,Raw,26,M,O,124.3,125,,,,,,,,,,,245,252.5,260,,260,260,Germany
7,Michelle Yungwirth,SBD,Wraps,24,F,O,59,60,62.5,82.5,92.5,,92.5,47.5,-52.5,,,47.5,62.5,82.5,90,,90,230,Canada
3,Mihály Erdei,D,Multi-ply,24,M,O,98.6,100,,,,,,,,,,,240,252.5,,,252.5,252.5,Hungary
4,Mihály Erdei,D,Raw,24,M,O,98.8,100,,,,,,,,,,,245,-255,-255,,245,245,Hungary
1,Mihály Horváth,SBD,Wraps,19,M,T3,106.5,110,260,-280,-280,,260,190,200,-203,,200,280,-290,-290,,280,740,Hungary
1,Mihály Horváth,B,Raw,19,M,T3,107.9,110,,,,,,190,-203,-203,,190,,,,,,190,Hungary
1,Mihály Krizsán,B,Raw,23,M,J,75,75,,,,,,130,135,-140,,135,,,,,,135,Hungary
1,Mihályné Fábián,B,Raw,41,F,M1,119.7,110+,,,,,,50,55,60,,60,,,,,,60,Hungary
5,Mikko Korpeinen,SBD,Wraps,37,M,O,97.4,100,250,-270,270,,270,150,157.5,-160,,157.5,300,310,320,,320,747.5,Finland
1,Mikko Korpeinen,D,Multi-ply,38,M,O,98.2,100,,,,,,,,,,,300,320,-330,,320,320,Finland
1,Miklós Kardos,SBD,Wraps,67,M,M6,81.9,82.5,145,,,,145,90,,,,90,170,,,,170,405,Hungary
2,Miklós Kerepesi-Kovács,SBD,Wraps,21,M,J,99.6,100,200,220,-225,,220,110,125,135,,135,250,265,277.5,,277.5,632.5,Hungary
3,Milan Pado,B,Raw,46,M,M2,109.7,110,,,,,,175,-182.5,185,,185,,,,,,185,Slovakia
2,Milan Treskavica,SBD,Wraps,26,M,O,145.2,140+,300,320,340,,340,210,220,230,,230,300,320,-330,,320,890,Croatia
1,Miloš Ćećanović,B,Multi-ply,40,M,M1,107.6,110,,,,,,225,235,-250,,235,,,,,,235,Montenegro
1,Milovan Marčetić,D,Raw,69,M,M6,59.9,60,,,,,,,,,,,110,-117.5,-117.5,,110,110,Serbia
1,Mirko Calisai,D,Raw,38,M,O,59,60,,,,,,,,,,,195,210,216,220,216,216,Italy
1,Mirko Carripilon,S,Wraps,23,M,J,97.6,100,-240,-240,240,,240,,,,,,,,,,,240,Argentina
1,Miroslav Drnek,B,Multi-ply,46,M,M2,89.9,90,,,,,,190,200,212.5,,212.5,,,,,,212.5,Czechia
5,Miroslav Šefl,SBD,Wraps,47,M,M2,96.7,100,205,215,222.5,,222.5,140,145,147.5,,147.5,210,230,240,,240,610,Czechia
1,Mirosław Urbaniak,B,Raw,57,M,M4,81.5,82.5,,,,,,130,140,-145,,140,,,,,,140,Poland
2,Mirtill Lachmann,SBD,Wraps,26,F,O,100.1,110,220,242.5,251,-261,251,90,100,-110,,100,200,210,-220,,210,561,Hungary
1,Mojtaba Maleki,SBD,Wraps,35,M,O,162.2,140+,460,-506,-506,,460,210,220,225,,225,340,355,-370,,355,1040,Iran
1,Mónika Bazsó,S,Wraps,44,F,M1,72.3,75,157.5,165,172.5,,172.5,,,,,,,,,,,172.5,Hungary
2,Mónika Bazsó,SBD,Wraps,44,F,M1,72.8,75,157.5,167.5,175,,175,92.5,97.5,102.5,,102.5,185,195,203,,203,480.5,Hungary
2,Mónika Bazsó,D,Multi-ply,44,F,M1,73.1,75,,,,,,,,,,,185,195,-203,,195,195,Hungary
DQ,Mónika Bazsó,D,Raw,44,F,M1,72.1,75,,,,,,,,,,,-185,-197.5,-197.5,,,,Hungary
1,Nagy Miklós,B,Raw,21,M,J,80.3,82.5,,,,,,145,152.5,-160,,152.5,,,,,,152.5,Hungary
1,Nelli Belme,B,Raw,16,F,T2,59.8,60,,,,,,30,35,-37.5,,35,,,,,,35,Hungary
2,Nicky Fleming,D,Raw,42,M,M1,79.2,82.5,,,,,,,,,,,215,245,-250,,245,245,UK
1,Nikola Stanković,D,Raw,18,M,T3,73.1,75,,,,,,,,,,,175,-185,185,,185,185,Serbia
1,Nikolas Tóth,D,Raw,20,M,J,121,125,,,,,,,,,,,300,315,-325,,315,315,Slovakia
DQ,Nils Tania,SBD,Wraps,52,M,M3,66,67.5,140,145,-150,,145,-80,-80,-80,,,-150,,,,,,South Africa
3,Noémi Török,SBD,Wraps,33,F,O,53.7,56,115,122.5,125,,125,57.5,60,-65,,60,120,125,130,,130,315,Hungary
6,Norbert Bessenyei,B,Raw,35,M,O,119,125,,,,,,200,215,220,,220,,,,,,220,Hungary
3,Norbert Deli,B,Multi-ply,37,M,O,74.6,75,,,,,,152.5,167.5,,,167.5,,,,,,167.5,Hungary
DQ,Norbert Gáleg,S,Wraps,22,M,J,104.1,110,-260,-260,-260,,,,,,,,,,,,,,Hungary
1,Norbert Gáleg,SBD,Wraps,22,M,J,105.2,110,270,285,-300,,285,190,200,-205,,200,270,285,-292.5,,285,770,Hungary
3,Norbert Gáleg,B,Raw,22,M,J,105.6,110,,,,,,190,200,-205,,200,,,,,,200,Hungary
2,Norbert Gáleg,D,Raw,22,M,J,105.4,110,,,,,,,,,,,280,285,-290,,285,285,Hungary
1,Norbert Hablicsek,D,Multi-ply,44,M,M1,110.7,125,,,,,,,,,,,280,300,320.5,-333,320.5,320.5,Hungary
1,Norbert Hablicsek,D,Raw,44,M,M1,108.6,110,,,,,,,,,,,252.5,262.5,272.5,,272.5,272.5,Hungary
1,Norbert Hajas,B,Raw,46,M,M2,74.7,75,,,,,,150,160,-167.5,,160,,,,,,160,Hungary
1,Norbert Vedres,D,Raw,27,M,O,65.5,67.5,,,,,,,,,,,160,-170,-170,,160,160,Hungary
1,Oleksandr Desiatskyi,SBD,Wraps,41,M,M1,124.7,125,240,250,260,,260,190,200,205,,205,270,285,295,,295,760,Ukraine
2,Olga Matjsiak,D,Raw,15,F,T1,49.7,52,,,,,,,,,,,80,85,-87.5,,85,85,Poland
1,Olga Matysiak,B,Raw,15,F,T1,49.2,52,,,,,,-35,35,-40,,35,,,,,,35,Poland
2,Olha Brodetska,S,Wraps,19,F,T3,70.4,75,50,-70,-70,,50,,,,,,,,,,,50,Ukraine
4,Ondřej Kaucký,SBD,Wraps,16,M,T2,73.6,75,145,150,-157.5,,150,85,90,95,,95,140,152.5,-175,,152.5,397.5,Czechia
1,Ondřej Vytlačil,B,Raw,31,M,O,88.3,90,,,,,,170,180,185,,185,,,,,,185,Czechia
4,Oriol Josep Ragues,SBD,Wraps,33,M,O,73.2,75,-205,205,-212.5,,205,112.5,117.5,-120,,117.5,232.5,240,250,,250,572.5,Spain
1,Oskars Zvarts,B,Multi-ply,40,M,M1,138.4,140,,,,,,240,-260,260,,260,,,,,,260,Ireland
1,Oslem Fili,B,Multi-ply,31,M,O,89.9,90,,,,,,240,-260,-260,,240,,,,,,240,Iran
1,Ottó Antal,SBD,Wraps,59,M,M4,59.3,60,120,125,-131,,125,60,-65,,,60,140,150,155,,155,340,Hungary
1,Ozor Szabó,B,Raw,46,M,M2,190.2,140+,,,,,,160,170,,,170,,,,,,170,Hungary
1,Pál Kovács,B,Multi-ply,56,M,M4,131.1,140,,,,,,170,180,-190,,180,,,,,,180,Hungary
1,Pál Kovács,B,Raw,56,M,M4,131.8,140,,,,,,130,140,-145,,140,,,,,,140,Hungary
1,Patrícia Hamarics,D,Raw,21,F,J,48.7,52,,,,,,,,,,,105,-110,-110,,105,105,Hungary
2,Patrik Adamus,D,Raw,21,M,J,78.5,82.5,,,,,,,,,,,220,240,-250,,240,240,Czechia
3,Patrik Fekete,B,Raw,21,M,J,148.4,140+,,,,,,185,190,-197.5,,190,,,,,,190,Hungary
3,Paul YarOlatiy,D,Raw,20,M,J,80.5,82.5,,,,,,,,,,,170,180,200,,200,200,Ukraine
1,Paulo Yarmolatii,S,Wraps,20,M,J,80.8,82.5,175,-190,190,,190,,,,,,,,,,,190,Ukraine
1,Pavel Balážik,D,Raw,39,M,O,52,56,,,,,,,,,,,137.5,147.5,-155,,147.5,147.5,Slovakia
2,Pavel Erban,SBD,Wraps,66,M,M6,89.7,90,95,115,-130,,115,75,-82.5,-82.5,,75,120,135,145,,145,335,Czechia
1,Pavel Malina,SBD,Multi-ply,58,M,M4,60.6,67.5,185,200,207.5,,207.5,105,112.5,117.5,,117.5,160,175,185,,185,510,Czechia
1,Pavel Malina,S,Multi-ply,58,M,M4,61.7,67.5,190,205,-210,,205,,,,,,,,,,,205,Czechia
1,Pavel Malina,D,Multi-ply,58,M,M4,61.8,67.5,,,,,,,,,,,160,175,,,175,175,Czechia
2,Pavol Glovacký,B,Raw,41,M,M1,80.5,82.5,,,,,,125,135,142.5,,142.5,,,,,,142.5,Slovakia
2,Péter Belme,B,Multi-ply,43,M,M1,106.3,110,,,,,,210,-215,-215,,210,,,,,,210,Hungary
4,Péter Belme,B,Raw,43,M,M1,106.3,110,,,,,,-170,170,-175,,170,,,,,,170,Hungary
4,Péter Csoma,SBD,Wraps,25,M,O,80.7,82.5,190,,,,190,92.5,,,,92.5,195,,,,195,477.5,Hungary
1,Péter Czentye,S,Wraps,29,M,O,94,100,-300,300,312.5,,312.5,,,,,,,,,,,312.5,Hungary
DQ,Péter Czentye,SBD,Wraps,29,M,O,93.7,100,-300,-310,-310,,,,,,,,,,,,,,Hungary
7,Péter Forgács,B,Raw,29,M,O,109,110,,,,,,190,200,205,,205,,,,,,205,Hungary
3,Péter Géresi,B,Raw,41,M,M1,102.4,110,,,,,,185,195,-202.5,,195,,,,,,195,Hungary
1,Peter Hallberg,D,Multi-ply,31,M,O,121.8,125,,,,,,,,,,,270,285,302.5,,302.5,302.5,Sweden
1,Peter Herák,S,Wraps,57,M,M4,89.6,90,230,245,-252.5,,245,,,,,,,,,,,245,Slovakia
1,Peter Herák,SBD,Wraps,57,M,M4,89,90,230,-252.5,-255,-255,230,120,125,127.5,,127.5,225,235,-242.5,,235,592.5,Slovakia
2,Péter Karácsony,SBD,Wraps,36,M,O,79,82.5,165,,,,165,112.5,,,,112.5,212.5,,,,212.5,490,Slovakia
9,Péter Katona,D,Raw,34,M,O,81.1,82.5,,,,,,,,,,,200,210,-220,,210,210,Hungary
DQ,Péter Kiss,SBD,Wraps,28,M,O,137.7,140,-235,,,,,,,,,,,,,,,,Hungary
5,Péter Kiss,D,Raw,28,M,O,137.2,140,,,,,,,,,,,255,270,275,,275,275,Hungary
6,Péter Kukla,B,Raw,45,M,M2,86.1,90,,,,,,122.5,130,-137.5,,130,,,,,,130,Hungary
1,Peter Lehocký,SBD,Wraps,46,M,M2,82.2,82.5,240,,,,240,165,,,,165,275,,,,275,680,Slovakia
1,Péter Mihály,B,Multi-ply,60,M,M5,156,140+,,,,,,200,,,,200,,,,,,200,Slovakia
9,Péter Pálvölgyi,SBD,Wraps,25,M,O,94.8,100,220,230,-235,,230,140,150,152.5,,152.5,230,237.5,240,,240,622.5,Hungary
1,Péter Pintér,SBD,Multi-ply,33,M,O,115.7,125,340,-352.5,352.5,,352.5,-250,250,-280,,250,290,310,320,,320,922.5,Slovakia
2,Péter Pintér,D,Multi-ply,33,M,O,115.8,125,,,,,,,,,,,300,-315,-330,,300,300,Slovakia
1,Péter Piszák,B,Raw,41,M,O,74.3,75,,,,,,180,192.5,197.5,200,197.5,,,,,,197.5,Hungary
3,Péter Soós,SBD,Wraps,21,M,J,81,82.5,185,-200,-205,,185,105,115,-120,,115,185,200,-210,,200,500,Hungary
1,Péter Szabó,D,Raw,54,M,M3,123.7,125,,,,,,,,,,,235,250,,,250,250,Slovakia
1,Péter Takács,B,Raw,45,M,M2,105.6,110,,,,,,190,-200,200,,200,,,,,,200,Hungary
7,Péter Terdik,SBD,Wraps,29,M,O,86.5,90,180,190,-200,,190,140,145,150,,150,200,220,225,,225,565,Hungary
1,Peter Uhrecký,SBD,Multi-ply,21,M,J,94.6,100,-250,-250,250,,250,195,205,210,,210,230,250,-255,,250,710,Slovakia
1,Petr Kutner,SBD,Wraps,68,M,M6,90.2,100,140,155,165,,165,70,77.5,82.5,,82.5,-170,170,190,,190,437.5,Czechia
3,Petr Novák,B,Raw,40,M,O,98.2,100,,,,,,190,197.5,-202.5,,197.5,,,,,,197.5,Czechia
5,Petrana Blašková,D,Raw,27,F,O,56.5,60,,,,,,,,,,,100,115,-120,,115,115,Slovakia
5,Petteri Hosio Henrik,B,Raw,39,M,O,118.5,125,,,,,,210,220,-232.5,,220,,,,,,220,Finland
1,Piotr Gaj,S,Wraps,24,M,O,125.3,140,265,-275,-275,,265,,,,,,,,,,,265,Poland
DQ,Premisl Skoták,SBD,Wraps,21,M,J,97.1,100,-272.5,-272.5,-272.5,,,,,,,,,,,,,,Czechia
5,PrzeJslaw Komarski,D,Raw,33,M,O,91.1,100,,,,,,,,,,,-200,200,210,,210,210,Poland
1,Rachael Malott,SBD,Wraps,26,F,O,67.5,67.5,150,-172.5,172.5,,172.5,92.5,100,-105,,100,180,197.5,-202.5,,197.5,470,USA
1,Rachael Malott,B,Raw,26,F,O,73.3,75,,,,,,95,-100,-100,,95,,,,,,95,USA
2,Radostina Lulova,SBD,Wraps,25,F,O,67.3,67.5,170,180,185,,185,82.5,-85,85,,85,177.5,-192.5,-192.5,,177.5,447.5,Bulgaria
DQ,Rafał Żarnowski,B,Multi-ply,26,M,O,89.9,90,,,,,,-200,-200,-200,,,,,,,,,Poland
6,RajOnd Pozsár,B,Raw,29,M,O,93.8,100,,,,,,180,182.5,-185,,182.5,,,,,,182.5,Hungary
3,Rami Antilla,SBD,Wraps,26,M,O,158.2,140+,280,305,-320,,305,165,172.5,-175,,172.5,270,292.5,307.5,,307.5,785,Finland
1,Ramóna Lakatos,D,Raw,17,F,T2,59.3,60,,,,,,,,,,,100,105,-110,,105,105,Hungary
1,Rane Ovaska,D,Raw,58,M,M4,80.2,82.5,,,,,,,,,,,200,216,-225,,216,216,Finland
1,Rane Vilho Ovaska,SBD,Wraps,58,M,M4,80.1,82.5,180,,,,180,110,,,,110,222.5,,,,222.5,512.5,Finland
4,Raymundo Reginaldo Aparecido,SBD,Wraps,42,M,M1,94.9,100,-180,180,-200,,180,130,140,-150,,140,250,260,-270,,260,580,Brazil
1,Rebeka Ficeková,SBD,Multi-ply,17,F,T2,71.7,75,90,110,-120,,110,70,80,90,,90,100,110,120,,120,320,Slovakia
1,Rebeka Ficeková,D,Multi-ply,17,F,T2,71.3,75,,,,,,,,,,,100,120,130,140,130,130,Slovakia
2,Reginaldo Aparecido,D,Raw,43,M,M1,100.4,110,,,,,,,,,,,250,260,-267.5,,260,260,Brazil
1,Rehana Maniar,SBD,Multi-ply,43,F,M1,67.2,67.5,-170,170,-205,,170,90,-105,-116,,90,155,181,-190,,181,441,Ireland
1,Remana Maniar,B,Multi-ply,43,F,M1,67.4,67.5,,,,,,82.5,100,-110,,100,,,,,,100,Ireland
1,Remana Maniar,D,Multi-ply,43,F,M1,67.4,67.5,,,,,,,,,,,160,181,185,,185,185,Ireland
DQ,Remus Watson,SBD,Multi-ply,20,M,J,67.1,67.5,-205,-205,-205,,,,,,,,,,,,,,Australia
1,Remus Watson,S,Multi-ply,20,M,J,71.5,75,170,185,200,210,200,,,,,,,,,,,200,Australia
1,Remus Watson,B,Multi-ply,20,M,J,71.1,75,,,,,,110,-122.5,-122.5,,110,,,,,,110,Australia
2,Remus Watson,D,Multi-ply,20,M,J,71.1,75,,,,,,,,,,,185,-197.5,197.5,,197.5,197.5,Australia
6,Renata Zapała,D,Raw,24,F,O,73.2,75,,,,,,,,,,,115,125,135,,135,135,Poland
1,David Thomas #4,D,Multi-ply,67,M,M6,112.1,125,,,,,,,,,,,170,,,,170,170,UK
DQ,David Thomas #4,D,Raw,67,M,M6,111.6,125,,,,,,,,,,,-160,-160,,,,,UK
2,Reza Zamani,SBD,Wraps,41,M,M1,105.5,110,210,222.5,232.5,,232.5,150,160,167.5,,167.5,220,245,255,,255,655,Iran
2,Ričards Bužinskis,B,Raw,22,M,J,131.9,140,,,,,,150,157.5,165,,165,,,,,,165,Latvia
1,Ričards Bužinskis,D,Raw,22,M,J,131.9,140,,,,,,,,,,,230,245,-257.5,,245,245,Latvia
DQ,Richárd Buda,B,Multi-ply,25,M,O,123.5,125,,,,,,-391,-401,-401,,,,,,,,,Hungary
2,Richárd Nagy,B,Raw,44,M,M1,116.2,125,,,,,,180,187.5,,,187.5,,,,,,187.5,Hungary
3,Richárd Nagy,D,Raw,44,M,M1,116.2,125,,,,,,,,,,,220,227.5,-232.5,,227.5,227.5,Hungary
10,Richárd Németh,B,Raw,24,M,O,103.9,110,,,,,,180,-190,-190,,180,,,,,,180,Hungary
4,Richárd Németh,D,Raw,24,M,O,103,110,,,,,,,,,,,260,280,292.5,,292.5,292.5,Hungary
1,Richárd Varjas,B,Raw,16,M,T2,63.4,67.5,,,,,,75,85,-87.5,,85,,,,,,85,Hungary
1,Richie Penkert,S,Wraps,55,M,M4,108.3,110,252.5,-265,265,,265,,,,,,,,,,,265,Ireland
DQ,Richie Penkert,SBD,Wraps,55,M,M4,106.2,110,-280,-280,-280,,,,,,,,,,,,,,Ireland
2,Rico Martinez,B,Raw,48,M,M2,95.5,100,,,,,,180,-190,-190,,180,,,,,,180,Germany
1,Rita Nagy,B,Raw,44,F,O,65.9,67.5,,,,,,125,130,-132.5,-132.5,130,,,,,,130,Hungary
3,Rob Nikoleychuk,B,Multi-ply,36,M,O,82,82.5,,,,,,210,-215,-215,,210,,,,,,210,Canada
2,Rob Nikoleychuk,B,Raw,36,M,O,88,90,,,,,,167.5,-180,-180,,167.5,,,,,,167.5,Canada
4,Róbert Blácha,SBD,Wraps,29,M,O,125.1,140,250,290,-310,,290,170,182.5,-187.5,,182.5,300,-317.5,-320,,300,772.5,Slovakia
1,Robert Drucker,B,Raw,81,M,M9,81.5,82.5,,,,,,90,100,-102.5,,100,,,,,,100,France
3,Róbert Franyó,SBD,Wraps,46,M,M2,108.4,110,-220,220,-230,,220,160,175,-182.5,,175,220,230,240,,240,635,Hungary
2,Robert Graham #1,SBD,Multi-ply,53,M,M3,98.2,100,240,260,-300,,260,160,-170,-180,,160,215,225,-235,,225,645,UK
1,Robert Nemś,D,Raw,49,M,M2,116.7,125,,,,,,,,,,,230,250,270,,270,270,Poland
DQ,Róbert Svanczár,B,Raw,33,M,O,105.8,110,,,,,,-195,,,,,,,,,,,Slovakia
4,Róbert Szász,D,Raw,32,M,O,81.8,82.5,,,,,,,,,,,240,260,-267.5,,260,260,Hungary
2,Róbert Tumpek,SBD,Wraps,25,M,O,98.3,100,300,322.5,-330,,322.5,150,165,-170,,165,280,300,-312.5,,300,787.5,Hungary
1,Robin Fülöp,SBD,Wraps,17,M,T2,96,100,185,195,-210,,195,120,-125,-127.5,,120,240,251,255,260,255,570,Hungary
2,Roland Gazda,D,Raw,24,M,O,87.4,90,,,,,,,,,,,240,255,-272.5,,255,255,Hungary
DQ,Roland Hegedüs,SBD,Wraps,31,M,O,133.2,140,-300,-300,,,,,,,,,,,,,,,Slovakia
2,Roland Király,SBD,Wraps,17,M,T2,80.9,82.5,190,205,-215,,205,107.5,115,-120,,115,200,-210,-210,,200,520,Hungary
1,Roland Póta,D,Raw,40,M,M1,85.3,90,,,,,,,,,,,250,270,-280,,270,270,Hungary
1,Roman Mandík,SBD,Wraps,50,M,M3,74.2,75,145,152.5,160,,160,102.5,107.5,110,,110,170,182.5,190,,190,460,Czechia
1,Ron Krieg,B,Raw,20,M,J,140.9,140+,,,,,,182.5,190,197.5,,197.5,,,,,,197.5,Germany
2,Ron Krieg,D,Raw,20,M,J,140.9,140+,,,,,,,,,,,250,260,272.5,,272.5,272.5,Germany
5,Roukaja Almagrabi,SBD,Wraps,35,F,O,73.4,75,105,115,117.5,,117.5,55,-60,60,,60,95,102.5,-110,,102.5,280,Israel
1,Roukaya Almagrabi,S,Wraps,35,F,O,72.9,75,-105,105,112.5,,112.5,,,,,,,,,,,112.5,Israel
3,Rowan Zunckel,SBD,Wraps,35,F,O,66.8,67.5,150,160,-175,,160,80,85,-87.5,,85,175,185,195,,195,440,South Africa
1,Ruba Mónika Hollóné,B,Raw,41,F,M1,69.1,75,,,,,,57.5,60,62.5,,62.5,,,,,,62.5,Hungary
1,Rudolf Conti,B,Raw,73,M,M7,72.2,75,,,,,,95,-102.5,102.5,,102.5,,,,,,102.5,Hungary
4,Ryszard Śliwiński,B,Raw,68,M,M6,74,75,,,,,,70,-75,,,70,,,,,,70,Poland
2,Ryszard Śliwiński,D,Raw,68,M,M6,73.7,75,,,,,,,,,,,145,155,-162.5,,155,155,Poland
1,Saeid Akbarizadeh,B,Raw,36,M,O,138.9,140,,,,,,220,240,-250,,240,,,,,,240,Iran
1,Sami Vaskelainen,SBD,Wraps,34,M,O,74.6,75,-245,245,-250,,245,132.5,137.5,140,,140,250,260,270,,270,655,Finland
1,Sami Vaskelainen,D,Raw,34,M,O,72.8,75,,,,,,,,,,,260,272.5,-277.5,,272.5,272.5,Finland
2,Sanchez Medina RaOn,B,Multi-ply,41,M,M1,87.4,90,,,,,,-200,200,-205,,200,,,,,,200,Spain
1,Sándor Bezsenyi,D,Raw,69,M,M6,85,90,,,,,,,,,,,160,170,177.5,,177.5,177.5,Hungary
1,Sándor Bíró,B,Raw,46,M,M2,96.4,100,,,,,,175,-182.5,182.5,,182.5,,,,,,182.5,Hungary
2,Sándor Busák,B,Raw,66,M,M6,88.3,90,,,,,,120,125,-130,,125,,,,,,125,Hungary
1,Sándor Szabó,B,Raw,55,M,M4,108.7,110,,,,,,160,172.5,,,172.5,,,,,,172.5,Hungary
2,Sándor Varjú,SBD,Wraps,18,M,T3,122.6,125,200,220,-240,,220,122.5,130,-135,,130,180,200,220,,220,570,Hungary
1,Sándor Varjú,D,Raw,18,M,T3,122.9,125,,,,,,,,,,,180,200,215,,215,215,Hungary
DQ,Sándor Vaszilkó,B,Raw,36,M,O,108.5,110,,,,,,,,,,,,,,,,,Hungary
1,Saša Cvetković,SBD,Wraps,48,M,M2,113.3,125,230,240,250,,250,140,-150,-150,,140,250,265,275,,275,665,Serbia
1,Saša Mašanović,B,Multi-ply,51,M,M3,124.4,125,,,,,,220,227.5,-232.5,,227.5,,,,,,227.5,Montenegro
1,Sean Hough,S,Wraps,21,M,J,103,110,-220,240,260,,260,,,,,,,,,,,260,Ireland
1,Sean Hough,D,Multi-ply,21,M,J,102.3,110,,,,,,,,,,,240,260,275,,275,275,Ireland
1,Sejfo Šehović,SBD,Wraps,59,M,M4,72.8,75,155,-170,-175,,155,-100,-100,100,,100,215,227.5,232.5,,232.5,487.5,Bosnia and Herzegovina
1,Sejfo Šehović,D,Raw,59,M,M4,73.2,75,,,,,,,,,,,220,233,237.5,,237.5,237.5,Bosnia and Herzegovina
2,SeyedmahOud Dehghanian,SBD,Wraps,53,M,M3,125.2,140,200,220,230,,230,-130,130,145,,145,220,235,-252.5,,235,610,Iran
1,Shane Cahill #1,B,Raw,34,M,O,66,67.5,,,,,,90,97.5,105,,105,,,,,,105,Ireland
1,Sharon Cooke,SBD,Wraps,48,F,M2,58.7,60,100,-107.5,107.5,110.5,107.5,42.5,-47.5,-47.5,,42.5,122.5,132.5,137.5,,137.5,287.5,UK
7,Slavomír Struhár,B,Raw,26,M,O,124.9,125,,,,,,205,212.5,217.5,,217.5,,,,,,217.5,Slovakia
1,Stanislav Jurčišin,D,Raw,72,M,M7,112.7,125,,,,,,,,,,,140,160,170,,170,170,Slovakia
2,Stanislav Ockor,B,Raw,22,M,J,108.4,110,,,,,,200,205,-210,,205,,,,,,205,Slovakia
3,Stanislav Tůma,B,Raw,41,M,M1,98.5,100,,,,,,175,185,-190,,185,,,,,,185,Czechia
2,Stefan Danut,D,Raw,27,M,O,91.8,100,,,,,,,,,,,260,-275,-275,,260,260,Romania
2,Štefan Lehocký,SBD,Wraps,16,M,T2,70.7,75,145,165,172.5,,172.5,75,80,85,,85,160,175,180,,180,437.5,Slovakia
DQ,Steffen Blumenthal,B,Multi-ply,34,M,O,80.6,82.5,,,,,,-220,-220,-220,,,,,,,,,Germany
1,Stephanie Horlyck,S,Wraps,52,F,M3,98.1,110,120,130,-140,,130,,,,,,,,,,,130,Australia
1,Stephanie Horlyck,SBD,Wraps,52,F,M3,97.9,110,125,135,-145,,135,65,75,-82.5,,75,157.5,170,175,,175,385,Australia
1,Stephanie Horlyck,B,Raw,52,F,M3,96.7,110,,,,,,67.5,72.5,77.5,80,77.5,,,,,,77.5,Australia
1,Stephanie Horlyck,D,Raw,52,F,M3,97.4,110,,,,,,,,,,,155,165,172.5,-180,172.5,172.5,Australia
2,Stephen Davies #1,SBD,Wraps,52,M,M3,99.3,100,200,220,-240,,220,135,145,-150,,145,220,230,245,,245,610,UK
2,Steve Hampton,SBD,Single-ply,49,M,O,109.9,110,-280,280,-300,,280,-180,190,205,,205,230,-245,255,,255,740,New Zealand
2,Steve Plunkett,SBD,Wraps,44,M,M1,92.4,100,240,260,-270,,260,160,-170,-170,,160,230,240,-245,,240,660,UK
1,Steve Hampton,S,Single-ply,49,M,M2,110,110,275,-295.5,-295.5,,275,,,,,,,,,,,275,New Zealand
2,Steve Hampton,B,Single-ply,49,M,M2,113.5,125,,,,,,180,200,-215,,200,,,,,,200,New Zealand
1,Steve Hampton,D,Single-ply,49,M,M2,113.5,125,,,,,,,,,,,235,250,-260,,250,250,New Zealand
1,Svetlana Dobrjakova,SBD,Wraps,42,F,M1,52,52,60,-70,-70,,60,50,52.5,-55,,52.5,105,115,120,,120,232.5,Latvia
2,Szabina Erdei,D,Raw,38,F,O,67.9,75,,,,,,,,,,,-155,155,165,,165,165,Hungary
1,Szabolcs Kassa,S,Wraps,33,M,O,67.1,67.5,150,165,175,,175,,,,,,,,,,,175,Hungary
2,Szabolcs Kassa,SBD,Wraps,33,M,O,67.2,67.5,160,-175,-175,,160,100,110,-117.5,,110,220,230,-235,,230,500,Hungary
2,Szabolcs Kassa,D,Raw,33,M,O,67.8,75,,,,,,,,,,,225,230,235,,235,235,Hungary
4,Szilárd Bai,SBD,Wraps,21,M,J,82.5,82.5,185,-200,-200,,185,105,-115,-115,,105,190,200,-212.5,,200,490,Hungary
5,Szilárd Nyúzó,D,Raw,22,M,J,107.2,110,,,,,,,,,,,220,235,242.5,,242.5,242.5,Hungary
2,Szilárd Rajkai,SBD,Wraps,38,M,O,128.1,140,290,310,320,,320,160,170,-175,,170,280,300,-305,,300,790,Hungary
1,Tahvo Jauhojärvi,B,Multi-ply,56,M,M4,68,75,,,,,,140,-146,146,150,146,,,,,,146,Sweden
1,Tahvo Jauhojärvi,B,Raw,57,M,M4,67.2,67.5,,,,,,115,-122.5,-122.5,,115,,,,,,115,Sweden
1,Tám Nguyen #1,SBD,Wraps,48,M,M2,84.4,90,140,-160,165,,165,140,150,,,150,160,180,190,,190,505,Slovakia
2,Tám Nguyen #1,B,Raw,48,M,M2,84.6,90,,,,,,150,162.5,165,,165,,,,,,165,Slovakia
1,Tamara Gejdošová,D,Raw,14,F,T1,48.6,52,,,,,,,,,,,60,72.5,85,,85,85,Slovakia
2,Tamás Bartalos,B,Raw,45,M,M2,119.6,125,,,,,,185,190,-202.5,,190,,,,,,190,Hungary
1,Tamás Bocz,SBD,Wraps,35,M,O,108.9,110,305,-320,-320,,305,210,222.5,-227.5,,222.5,310,320,,,320,847.5,Hungary
2,Tamás Brudnyák,S,Wraps,43,M,M1,100.4,110,200,215,-217.5,,215,,,,,,,,,,,215,Hungary
5,Tamás Holló,B,Raw,44,M,M1,106,110,,,,,,142.5,-145,-145,,142.5,,,,,,142.5,Hungary
2,Tamás Holló,B,Raw,18,M,T3,96.7,100,,,,,,-140,140,-142.5,,140,,,,,,140,Hungary
3,Tamás Kövesdi,D,Raw,28,M,O,111.7,125,,,,,,,,,,,320,332.5,-340,,332.5,332.5,Hungary
1,Tamás Olnár,D,Multi-ply,43,M,M1,102.7,110,,,,,,,,,,,300,312.5,-322.5,,312.5,312.5,Hungary
1,Tamás Pfeifenróth,B,Raw,45,M,M2,113.6,125,,,,,,190,195,-200,,195,,,,,,195,Hungary
3,Tamás Szabó,B,Raw,47,M,M2,123.8,125,,,,,,180,-190,-190,,180,,,,,,180,Hungary
1,Tamás Veres,B,Raw,55,M,M4,89.9,90,,,,,,130,137.5,142.5,,142.5,,,,,,142.5,Hungary
3,Tanja Krupka,D,Raw,28,F,O,85.8,90,,,,,,,,,,,107.5,110,122.5,,122.5,122.5,Canada
1,Tanya Krupka,SBD,Wraps,28,F,O,86.1,90,85,97.5,-110,,97.5,45,52.5,-55,,52.5,102.5,115,125,,125,275,Canada
1,Tapio Laine,B,Multi-ply,66,M,M6,120.4,125,,,,,,210,220,-230,230,220,,,,,,220,Finland
3,Tatiana Magulová,B,Raw,37,F,O,73.6,75,,,,,,80,85,-90,,85,,,,,,85,Slovakia
2,Tea Stojšić,SBD,Wraps,20,F,J,57.7,60,100,107.5,-112.5,,107.5,55,60,62.5,,62.5,120,127.5,132.5,,132.5,302.5,Croatia
1,Tetiana Brodetska,SBD,Wraps,22,F,J,74.1,75,180,191,200,,200,90,-95,-100,,90,160,170,180,,180,470,Ukraine
2,Tetiana Brodetska,D,Raw,22,F,J,73.8,75,,,,,,,,,,,160,-180,-180,,160,160,Ukraine
DQ,Thorsten Bohnenberger,SBD,Wraps,23,M,J,97.2,100,-230,-230,-240,,,,,,,,,,,,,,Germany
2,Tibor Fülpesi,B,Raw,21,M,J,120.6,125,,,,,,-200,200,-210,,200,,,,,,200,Hungary
2,Tibor Gejdoš,D,Raw,54,M,M3,103.7,110,,,,,,,,,,,225,250,260,,260,260,Slovakia
2,Tibor Karalyos,S,Wraps,44,M,M1,131.2,140,250,-280,,,250,,,,,,,,,,,250,Hungary
DQ,Tibor Karalyos,D,Raw,44,M,M1,131.5,140,,,,,,,,,,,-310,-310,,,,,Hungary
2,Tibor Manzera,S,Wraps,50,M,M3,103.7,110,100,115,,,115,,,,,,,,,,,115,Hungary
1,Tibor Manzera,S,Multi-ply,50,M,M3,98.8,100,100,115,,,115,,,,,,,,,,,115,Hungary
2,Tibor Manzera,D,Multi-ply,50,M,M3,99.9,100,,,,,,,,,,,150,180,-227.5,,180,180,Hungary
1,Tibor Pukáč,SBD,Wraps,47,M,M2,105.1,110,265,282.5,-290,,282.5,165,172.5,176,,176,240,250,255,,255,713.5,Slovakia
1,Tibor Sipos,S,Wraps,53,M,M3,78.8,82.5,140,150,160,,160,,,,,,,,,,,160,Hungary
2,Tibor Szántó,D,Raw,42,M,M1,114.2,125,,,,,,,,,,,260,270,-287.5,,270,270,Hungary
3,Tibor SzOlár,B,Raw,46,M,M2,125.4,140,,,,,,130,140,145,,145,,,,,,145,Hungary
1,Tibor Varga,SBD,Wraps,53,M,M3,119.2,125,180,190,-200,,190,150,160,-170,,160,200,210,215,,215,565,Hungary
1,Tifani Wittman,SBD,Wraps,18,F,T3,70.4,75,140,150,160,,160,100,105,110,,110,180,190,205,,205,475,Slovakia
6,Tim Agnew,SBD,Wraps,31,M,O,153.2,140+,-190,190,-235,,190,137.5,155,-160,,155,180,205,-215,,205,550,Canada
3,Tim Agnew,B,Raw,31,M,O,153.2,140+,,,,,,135,152.5,-157.5,,152.5,,,,,,152.5,Canada
1,Tin Mayfield,SBD,Wraps,45,M,M2,96.6,100,220,-240,240,,240,160,-170,-170,,160,260,280,290,300,290,690,UK
3,Samsat Tom Leckloksavang,SBD,Wraps,25,M,O,63.3,67.5,85,100,115,,115,70,75,-85,,75,140,155,170,,170,360,France
DQ,Tomáš Kríž,B,Multi-ply,25,M,O,98.6,100,,,,,,-302.5,-302.5,-302.5,,,,,,,,,Slovakia
1,Tomáš Ryšavý,B,Raw,27,M,O,81.2,82.5,,,,,,190,202.5,-207.5,,202.5,,,,,,202.5,Slovakia
1,Tomáš Ryšavý,D,Raw,27,M,O,81.4,82.5,,,,,,,,,,,270,290.5,300,,300,300,Slovakia
12,Tomáš Štourač,SBD,Wraps,24,M,O,98.4,100,190,200,-207.5,,200,115,125,-130,,125,215,-230,-240,,215,540,Czechia
1,Topias Cunningham,SBD,Wraps,23,M,J,121.9,125,300,320,-330,,320,200,-210,-210,,200,320,350,-360,,350,870,Finland
1,Ulrich Mielich,SBD,Wraps,78,M,M8,73.1,75,55,65,70,,70,-50,52.5,-57.5,,52.5,95,110,-115,,110,232.5,Germany
1,Ulrich Vetter,B,Multi-ply,66,M,M6,105.2,110,,,,,,170,180,190,,190,,,,,,190,Germany
1,Ulrich Vetter,B,Raw,66,M,M6,105.6,110,,,,,,140,150,-155,,150,,,,,,150,Germany
7,Vajk Varsányi,D,Raw,24,M,O,81.1,82.5,,,,,,,,,,,245,-255,-255,,245,245,Hungary
1,Valentin Veres,B,Raw,19,M,T3,89.2,90,,,,,,120,125,130,,130,,,,,,130,Hungary
1,Valery Boreiko,S,Wraps,53,M,M3,73.4,75,170,175,-180,,175,,,,,,,,,,,175,Israel
2,Valery Boreiko,SBD,Wraps,53,M,M3,73.4,75,170,180,-185,,180,95,-102.5,102.5,,102.5,152.5,160,-170,,160,442.5,Israel
2,Valery Boreiko,B,Raw,53,M,M3,73.1,75,,,,,,95,110,-115,,110,,,,,,110,Israel
1,Valery Boreiko,D,Raw,53,M,M3,72.6,75,,,,,,,,,,,140,,,,140,140,Israel
1,Valery Tomilov,S,Wraps,53,M,M3,99.2,100,230,247.5,250,,250,,,,,,,,,,,250,Israel
1,Valery Tomilov,SBD,Wraps,53,M,M3,103.1,110,-240,240,250,,250,165,175,182.5,,182.5,200,,,,200,632.5,Israel
1,Valery Tomilov,D,Multi-ply,53,M,M3,102.1,110,,,,,,,,,,,245,262.5,-275,,262.5,262.5,Israel
2,Valery Tomilov,B,Raw,53,M,M3,103.5,110,,,,,,170,180,-182.5,,180,,,,,,180,Israel
1,Vanessa Torres,SBD,Wraps,31,F,O,55.9,56,165,-185,185,,185,95,101.5,103,-105,103,-140,140,165,,165,453,Finland
1,Vanessa Torres,B,Raw,31,F,O,56,56,,,,,,95,-101,-101,101,95,,,,,,95,Finland
2,Vendel Böjtös,SBD,Multi-ply,53,M,M3,122,125,180,195,210,,210,-130,130,-137.5,,130,180,195,205,,205,545,Hungary
2,Veronika Danyi,B,Raw,41,F,M1,73.4,75,,,,,,40,42.5,45,,45,,,,,,45,Hungary
1,Veronika Dudásné Szász,SBD,Wraps,47,F,M2,51.6,52,100,-102.5,102.5,,102.5,50,55,-65.5,,55,116,-120,120,125,120,277.5,Hungary
3,Viktor Csurgai,B,Raw,23,M,J,79.1,82.5,,,,,,135,137.5,142.5,,142.5,,,,,,142.5,Hungary
11,Viktor Kovács,SBD,Wraps,36,M,O,98.3,100,230,-250,-250,,230,140,150,,,150,180,210,225,,225,605,Hungary
3,Viktor Vacsy,D,Raw,18,M,T3,76.5,82.5,,,,,,,,,,,180,200,205,,205,205,Hungary
1,Viktória Majoros,SBD,Wraps,18,F,T3,87.6,90,100,110,-115,,110,45,-55,-55,,45,100,110,120,,120,275,Hungary
1,VilOs Gruber,D,Raw,75,M,M8,82.5,82.5,,,,,,,,,,,105,115,130,,130,130,Hungary
1,Virpi Knuutila,B,Raw,51,F,M3,88.1,90,,,,,,120,130,135,-140,135,,,,,,135,Finland
1,Virpi Knuutila,D,Raw,50,F,M3,88.4,90,,,,,,,,,,,210,225,-235,,225,225,Finland
2,Vít Kovanič,B,Raw,18,M,T3,107.1,110,,,,,,145,155,162.5,,162.5,,,,,,162.5,Czechia
2,Vivien Halász,SBD,Wraps,16,F,T2,65.1,67.5,95,100,-102.5,,100,55,60,-62.5,,60,95,100,105,,105,265,Hungary
1,Vjekoslav Karakaš,D,Raw,48,M,M2,66.2,67.5,,,,,,,,,,,150,157.5,160,,160,160,Croatia
5,Vladan Zapletal,B,Raw,47,M,M2,85.7,90,,,,,,-150,150,-152.5,,150,,,,,,150,Czechia
1,Vladimír Gosin,SBD,Multi-ply,53,M,M3,93,100,260,280,300,,300,170,-182.5,-182.5,,170,260,270,-280,,270,740,Israel
1,Vladimír Gosin,SBD,Wraps,53,M,M3,93.8,100,220,230,242.5,,242.5,150,160,-165,,160,260,272.5,-280,,272.5,675,Israel
1,Vladimír Svoboda,D,Raw,66,M,M6,93.9,100,,,,,,,,,,,155,165,170,,170,170,Czechia
1,Vlastimil Kužel,B,Raw,40,M,O,108.1,110,,,,,,230,240,-250,,240,,,,,,240,Czechia
1,Vojtech Lázók,B,Raw,50,M,M3,108.6,110,,,,,,175,185,190,,190,,,,,,190,Slovakia
1,Wiesław Kiwacki,B,Raw,41,M,M1,73.9,75,,,,,,130,135,140,,140,,,,,,140,Poland
2,Wiesław Wrŏbel,B,Raw,61,M,M5,98.5,100,,,,,,120,-130,,,120,,,,,,120,Poland
1,Wiesław Wrŏbel,D,Raw,61,M,M5,99.9,100,,,,,,,,,,,240,257.5,270,,270,270,Poland
3,Will Hunt,D,Multi-ply,31,M,O,123.9,125,,,,,,,,,,,260,280,-295,,280,280,Australia
2,Yuriy Ustinov,D,Multi-ply,43,M,M1,104.4,110,,,,,,,,,,,240,250,260,,260,260,Russia
2,Zbigniew Koper,B,Raw,64,M,M5,74.5,75,,,,,,95,102.5,105,,105,,,,,,105,Poland
1,Zbigniew Koper,D,Raw,64,M,M5,74.8,75,,,,,,,,,,,150,160,-162.5,,160,160,Poland
2,Zdeněk Holeček,B,Raw,30,M,O,74.1,75,,,,,,155,162.5,165,,165,,,,,,165,Czechia
8,Zdeněk Večeřa,B,Raw,28,M,O,115.1,125,,,,,,200,-210,,,200,,,,,,200,Czechia
4,Zdeněk Večeřa,D,Raw,28,M,O,115.1,125,,,,,,,,,,,300,-320,-320,,300,300,Czechia
1,Zia Mirza,SBD,Wraps,61,M,M5,65.5,67.5,130,145,155,,155,100,105,110,,110,152.5,170,180,,180,445,UK
1,Zia Mirza,B,Raw,61,M,M5,66.4,67.5,,,,,,95,105,110,,110,,,,,,110,UK
1,Zia Mirza,D,Raw,61,M,M5,67.1,67.5,,,,,,,,,,,152.5,170,180,,180,180,UK
2,Zoltán Borbíró,SBD,Wraps,23,M,J,116.3,125,260,280,-300,,280,170,-180,-180,,170,320,330,-351,,330,780,Hungary
4,Zoltán Debreczeni,SBD,Wraps,21,M,J,96.4,100,185,195,202.5,,202.5,145,-155,155,,155,235,250,-262.5,,250,607.5,Hungary
1,Zoltán Heidinger,SBD,Wraps,41,M,M1,59.1,60,90,100,115,,115,90,-100,-100,,90,130,-150,,,130,335,Hungary
1,Zoltán Heidinger,B,Raw,41,M,M1,59.5,60,,,,,,85,90,95,,95,,,,,,95,Hungary
2,Zoltán Horváth #2,SBD,Wraps,18,M,T3,78.9,82.5,170,180,190,,190,100,107.5,-110,,107.5,200,207.5,-222.5,,207.5,505,Hungary
1,Zoltán Jurko,D,Raw,78,M,M8,85.4,90,,,,,,,,,,,105,120,132.5,,132.5,132.5,Slovakia
1,Zoltán Karsai,SBD,Wraps,44,M,M1,95.2,100,250,-260,-260,,250,180,190,195,,195,250,260,265,,265,710,Hungary
1,Zoltán Megyeri,B,Multi-ply,43,M,M1,87.2,90,,,,,,200,210,-215,,210,,,,,,210,Hungary
3,Zoltán Németh,S,Wraps,51,M,M3,96.8,100,175,205,215,,215,,,,,,,,,,,215,Hungary
2,Zoltán Németh,SBD,Wraps,51,M,M3,100.9,110,180,205,-215,,205,140,150,-155,,150,185,205,-210,,205,560,Hungary
3,Zoltán Németh,B,Raw,51,M,M3,98.3,100,,,,,,140,150,-152.5,,150,,,,,,150,Hungary
2,Zoltán Németh,D,Raw,51,M,M3,99.2,100,,,,,,,,,,,185,-210,,,185,185,Hungary
4,Zoltán Stégermájér,B,Raw,26,M,O,114.8,125,,,,,,230,-240,-240,,230,,,,,,230,Hungary
2,Zoltán Szabó,B,Multi-ply,33,M,O,82.2,82.5,,,,,,190,212.5,,,212.5,,,,,,212.5,Hungary
4,Zoltán Vásárhelyi,B,Raw,42,M,M1,111.3,125,,,,,,170,-180,-180,,170,,,,,,170,Hungary
3,Zoltán Zelei,B,Multi-ply,31,M,O,99.3,100,,,,,,-250,250,-260,,250,,,,,,250,Hungary
1,Zsolt Antal,SBD,Wraps,43,M,M1,108.3,110,-280,280,-296,,280,190,-200.5,,,190,280,-300.5,300.5,,300.5,770.5,Hungary
1,Zsolt Horváth,SBD,Wraps,43,M,M1,80.5,82.5,230,,,,230,140,,,,140,255,,,,255,625,Hungary
1,Zsolt Horváth,D,Raw,43,M,M1,80.5,82.5,,,,,,,,,,,235,250,260,,260,260,Hungary
1,Zsolt Karlik,B,Multi-ply,46,M,M2,74.2,75,,,,,,155,,,,155,,,,,,155,Hungary
1,Zsolt Karlik,B,Raw,46,M,M2,74.5,75,,,,,,155,160,-165.5,,160,,,,,,160,Hungary
4,Zsolt Kovács,D,Raw,23,M,J,108.3,110,,,,,,,,,,,250,-280,-280,,250,250,Hungary
4,Zsolt Kovács,B,Raw,45,M,M2,84.7,90,,,,,,150,160,-165,,160,,,,,,160,Hungary
1,Zsolt Kovács,D,Raw,55,M,M4,129.7,140,,,,,,,,,,,200,215,230,,230,230,Hungary
5,Zsolt Mák,B,Raw,25,M,O,79.9,82.5,,,,,,175,182.5,-192.5,,182.5,,,,,,182.5,Hungary
1,Zsolt Ohácsi,B,Multi-ply,52,M,M3,98.8,100,,,,,,150,,,,150,,,,,,150,Hungary
2,Zsolt Ohácsi,B,Raw,52,M,M3,99.1,100,,,,,,160,167.5,,,167.5,,,,,,167.5,Hungary
1,Zsolt Oláh,B,Multi-ply,23,M,J,97.5,100,,,,,,140,160,175,,175,,,,,,175,Hungary
1,Zsolt Piller,B,Raw,50,M,M3,116.7,125,,,,,,180,190,-197.5,,190,,,,,,190,Hungary
DQ,Zsolt Viktór Szabó,B,Raw,42,M,M1,132.2,140,,,,,,,,,,,,,,,,,Hungary
1,Zsolt Viktór Szabó,D,Raw,42,M,M1,132.2,140,,,,,,,,,,,280,-300,-300,,280,280,Hungary
