Place,Name,Sex,BirthDate,Equipment,Division,BodyweightKg,WeightClassKg,Squat1Kg,Squat2Kg,Squat3Kg,Squat4Kg,Best3SquatKg,Bench1Kg,Bench2Kg,Bench3Kg,Bench4Kg,Best3BenchKg,Deadlift1Kg,Deadlift2Kg,Deadlift3Kg,Deadlift4Kg,Best3DeadliftKg,TotalKg,Event
1,Jessica Totman,F,2001-02-20,Wraps,F-JR,71.7,75,90,97.5,102.5,,102.5,45,50,57.5,,57.5,120,,,,120,280,SBD
1,Lauren Mcfarlane,F,2000-09-14,Wraps,F-JR,83.4,90,100,110,-115,-115,110,60,62.5,65,-70,65,125,135,145,-150,145,320,SBD
1,Keryn Mulder,F,1975-01-11,Wraps,F-M2R,66.8,67.5,95,100,105,,105,52.5,55,-60,,55,110,120,125,,125,285,SBD
1,Haylee Davy,F,1996-05-19,Wraps,F-OR,59.1,60,97.5,102.5,-105,,102.5,52.5,-55,-55,,52.5,-145,-150,150,,150,305,SBD
DQ,Te Aue Addison,F,1992-12-13,Wraps,F-OR,64,67.5,-105,110,-115,,110,-57.5,-57.5,-57.5,,,105,110,120,,120,,SBD
1,Liv Ford,F,1995-12-22,Wraps,F-OR,72.9,75,110,120,130,,130,70,75,-80,,75,130,137.5,145,,145,350,SBD
1,Tyra Todd,F,1999-03-14,Wraps,F-OR,75.7,82.5,100,-102.5,-102.5,,100,50,-55,-55,,50,140,150,-155,,150,300,SBD
1,KJ Godinet,F,1992-01-31,Wraps,F-OR,89.4,90,130,137.5,142.5,,142.5,60,67.5,72.5,,72.5,140,160,-170,,160,375,SBD
1,Sarah Guise,F,1991-06-17,Wraps,F-OR,106.3,110,130,135,140,,140,60,65,-70,,65,140,145,150,,150,355,SBD
2,Naomi Randall,F,1995-06-21,Wraps,F-OR,105.7,110,-115,115,120,,120,70,75,-80,,75,150,155,-160,,155,350,SBD
1,Imaan Tuitama,F,1989-10-29,Wraps,F-OR,154.3,110+,125,130,-140,,130,107.5,115,120,-125.5,120,180,195,205,,205,455,SBD
1,Milla Botha,F,2007-07-16,Wraps,F-T2R,60,60,85,90,95,-100,95,40,42.5,-45,-45,42.5,100,110,115,120,115,252.5,SBD
1,Marley Martin,F,2006-01-28,Wraps,F-T2R,99.9,100,130,135,145,,145,52.5,-57.5,,,52.5,155,165,180,191,180,377.5,SBD
1,Emma Birch,F,2004-03-31,Wraps,F-T3R,74.4,75,107.5,110,112.5,,112.5,65,70,75,-77.5,75,140,147.5,152.5,157.5,152.5,340,SBD
1,Aroha Tokona,F,1990-03-03,Single-ply,F-OE,85.2,90,115,125,-130,,125,65,-67.5,-67.5,,65,130,140,150,,150,340,SBD
1,Rachel Young,F,1986-11-03,Wraps,F-OR,88.5,90,110,-112.5,112.5,,112.5,,,,,,,,,,,112.5,S
1,Zoe Marr,F,1983-05-30,Unlimited,F-M1E,99.4,100,,,,,,-120,130,140,145,140,,,,,,140,B
1,Ashlee Dunsmuir,F,1995-01-16,Raw,F-OR,72.7,75,,,,,,,,,,,110,117.5,-120,,117.5,117.5,D
1,Jack Davis #6,M,2000-07-12,Wraps,M-JR,87.4,90,185,195,207.5,,207.5,100,107.5,-115,,107.5,170,190,-210,,190,505,SBD
DQ,Patrick Schnarre,M,2000-02-07,Wraps,M-JR,99.9,100,-255,-255,,,,120,135,-150,,135,200,220,-235,,220,,SBD
DQ,Rob Blackett,M,,Wraps,M-M1R,108.7,110,110,125,145,,145,-100,-100,-100,,,170,185,-200,,185,,SBD
1,Kevin Saunders,M,1976-02-07,Raw,M-M2R,90,90,170,182.5,,,182.5,135,143.5,-147.5,,143.5,265,272.5,280,-285,280,606,SBD
1,James Joyce #1,M,1969-10-02,Wraps,M-M3R,88.6,90,140,150,155,,155,100,102.5,105,,105,180,190,-205,,190,450,SBD
1,Kyle Anderson,M,1999-03-24,Wraps,M-OR,79.3,82.5,100,107.5,-117.5,,107.5,-65,72.5,-77.5,,72.5,135,145,155,,155,335,SBD
DQ,Jesse Dempster,M,1998-05-30,Wraps,M-OR,80.6,82.5,-160,-160,,,,85,-92.5,-92.5,,85,,,,,,,SBD
1,Finn Tito,M,1998-04-02,Wraps,M-OR,89.9,90,182.5,190,-200,,190,125,-132.5,-140,,125,200,215,225,,225,540,SBD
1,Albie Hosking,M,1986-07-19,Wraps,M-OR,98.3,100,180,190,-200,,190,127.5,-132.5,132.5,,132.5,220,227.5,232.5,,232.5,555,SBD
2,Michael Vermunt,M,1994-01-13,Wraps,M-OR,99.7,100,-192.5,-192.5,192.5,,192.5,127.5,132.5,-137.5,,132.5,215,225,-230,,225,550,SBD
1,William McCormick,M,1992-07-30,Wraps,M-OR,123.5,125,285,292.5,-300,,292.5,145,155,-162.5,,155,220,240,252.5,,252.5,700,SBD
2,Jabian Takarua,M,1991-01-21,Wraps,M-OR,123.3,125,225,,,,225,-125,127.5,-132.5,,127.5,220,-255,-255,,220,572.5,SBD
1,Joseph Harwood,M,1991-02-09,Wraps,M-OR,133.9,140,225,245,265,,265,160,-170,170,,170,200,220,240,,240,675,SBD
1,Izayah Drayton,M,2006-11-20,Wraps,M-T2R,74.8,75,160,170,-175,,170,110,115,120,,120,215,225,235,242.5,235,525,SBD
1,Fabian Macrae,M,2006-10-04,Wraps,M-T2R,99.8,100,165,180,-190,,180,87.5,95,-102.5,,95,190,205,-212.5,-212.5,205,480,SBD
1,Jamahl Beattie,M,1990-05-16,Raw,M-OR,107.5,110,,,,,,167.5,172.5,-180,,172.5,,,,,,172.5,B
DQ,Ross McDougall,M,,Unlimited,M-M1E,120,125,,,,,,-305,-315,-315,,,,,,,,,B
1,Dimitrious Hanara,M,1972-11-28,Unlimited,M-M3E,139.5,140,,,,,,365,380,391,400,391,,,,,,391,B
1,Jamahl Beattie,M,1990-05-16,Raw,M-OR,107.5,110,,,,,,,,,,,250,270,,,270,270,D
